:02000002F80004
:20000000EB0C414D44204C5044203031641AFAFCBAA0FFEDA940007504B83F80EE2E833E26
:20002000E001007401CBBAF4FFEDC1E80C8CCB81FB00807703E9E70048780C741948741E80
:2000400048742E487475F4BAA2FFB80470EEBD5400E90C01EBF0BD5C00E9DD00EBE9BD6466
:2000600000E9D500BAACFFB8FF06EEBB0008E92F01BD7700E9C200BA70FFEC25FF7FEEBA97
:2000800072FFEC25FF7FEEBA76FFEC25FFFCEEBA78FFEC25FFFCEEBAE2FFB84E00EEBAE4F1
:2000A000FFB80080EEBAA2FFB84470EEBDB200E9AE00BAE4FFB8FF7FEEEB8CBDC100E98938
:2000C00000BAA2FFB80470EFBDCE00E99200BAA2FFB82470EFBDDB00E98500BAC0FFEC8320
:2000E000E0EFEEBAC2FFEC83E0EFEEBAC0FFEC83E0DFEEBAC2FFEC83E0DFEEBAAAFFB84E07
:2001000000EEBAACFFB80080EEBAA2FFB84770EEBD1501EB4BBAACFFB8FF7FEEE928FFBB51
:20012000000883F8027479BAA2FFED0D000803C08BD84823C375F9EB67BAE6FFB83333EE31
:20014000B8CCCCEEB80000EEFFE5BAE0FFB83333EEB8CCCCEEB80000EEEDBA8000EFFFE554
:2001600033F68EDE8BC68BCEF7D18904894C023B0475113B4C02750CBB00088EC326890C76
:200180003B047402FFE581FB0080730B03DB8EC326890C3B0474EF8BC3488BC8ED8AE5EF8C
:2001A000E9ED008D061D00C35B585AC1C2048BCA83E20F33CA03C183D20083E20FFFE35BD2
:2001C000585A8BC883E00F33C883E20F0BD1C1CA04FFE38CC8D1E01BC040C3000000000009
:2001E000000058595B0750568BF333DB33D2B40026ACD3C003D883D200E2F38BC35EC38C9C
:20020000D8C32EA1E0010BC075028CC8C3BB70772E8B074003C3C38D06B008C30E681A76FB
:20022000E885FFA3500189165201C3578BD0E8DCFF2BC383E804761383C3042E8B3F89156E
:200240002E837F020074EC8C1DEBE85FC3FAFC58588B1E380189071E178D26B008E8942E0C
:200260008B1E34018B47028EC08B1E3601030783E8408ED0BC0004FB33C033DB33C933D2CE
:2002800033F633FF33ED061F9C0E688802E989738D3620768D0E50018BD103D6C1EA048C88
:2002A000C803C23BC3720B8D06B008C1E8042BC3F7D88ED88EC08ED08D26B00833FFF32EB1
:2002C000A48D0E4C082BCF33C0D1E9F3ABB840008CD98CCA3BCA720AB8B008C1E80403C131
:2002E0008BCB408B1E34018947022BC8498B1E3601890FE826FF8CC8E830FFE8406C33C005
:200300005050E948FF5A5B8CC82D00801BC003C37804750CFFE22EA1E0010BC074F6EB31D7
:20032000E8EAFE8BC883C020C1E8048B1E36012B0777E1F7D88B1E34010347025657FC334B
:20034000F68EC033FFD1E9F32EA55F5E268C0EE0015052E8D5FECB33C02E8706E0010BC0C7
:20036000742E8CCA8B1E34012B57024A8B1E360189178CCA2BD033DB8EC3B302B9000140FA
:20038000263B07750326011783C304E2F2E88CFEC3585B8BEC8BF48CD88EC08CD3BF9008DB
:2003A0003BC3750583EC108BFCFCB91000F336A583EF208ED08BE753FF7516FF7514E8E796
:2003C000FDBB03003B06500175243B165201751E83C506E82CFE8B5D162BD84B8B451A89E1
:2003E00045148B451C8945168B451E894518895D1A8D461A89451C8F451EE83D068BF4830A
:20040000C618FD36C47C0483EF02B90D00F3A5FC83C7028CC08ED08BE7071F61CF585A4207
:20042000C9585816078BF483EC068BFCFCB90D00F326A58BECE8CAFD03C2894616C1E204B4
:200440008D061A762BC28946145050E943FF58CBC8040000E891660BC0743D833E88040047
:20046000750EE8B76E0BC07407C746FE0100EB05C746FE00006A00E89066837EFE007518CB
:20048000A18804C706880400003D01001BC025000280C40450E8A22BC9C3A190040B068EE9
:2004A00004740AA05601C41E8E042688072BC0A39004A38E04C3C80800006A00E8816D0B65
:2004C000C075218D46FC1650E8D56D0BC074158D46F81650E8C96D0BC074096A00E8606D5D
:2004E0000BC07503E9A700FF76FEFF76FCFF76FAFF76F8E8D46A5250FF76FAFF76F8FF7650
:20050000FE8B46FC508B56FE2B46F81B56FA5250FF76FAFF76F8FF76FEFF76FC8B46F88B57
:2005200056FA0346FC1356FE5250FF76FAFF76F8FF76FEFF76FC0E68195AE8636C83C4284E
:200540008B46FA0B46F8744DFF76FAFF76F8FF76FEFF76FCE8116B5250FF76FAFF76F8FF25
:2005600076FEFF76FCFF76FAFF76F8FF76FEFF76FCE8946A5250FF76FAFF76F8FF76FEFF00
:2005800076FC0E68AF59E8176C83C41CC9C30E684F58E80B6CC9C390C8080000C746FA00A2
:2005A000006A036A3DE8826C0BC074118D46FC1650E8846E0BC07459C746FA01006A00E800
:2005C0007E6C0BC07407C746F80100EB158D46F81650E8B96C0BC074386A01E8626C0BC044
:2005E000742F8B46F8A35401837EFA0074168B46FEC41E7C04268947168B46FCC41E7C04A6
:2006000026894714C41E7C04B8010026084719C9C333C0C9C390E8271133C0C3C8280000C6
:200620005633C0A36604A37004A36E04A386048946EE8946EC6A01E888656A01E8C96B6A62
:2006400001E80C6D2AE43D7A007503E986037603E997000AC07503E9D2032C3A7503E98346
:2006600003FEC87503E9C4032C047503E985002C237503E98400FEC87503E99F00FEC8753E
:2006800003E99E00FEC87503E99D00FEC87503E99C00FEC87503E99B00FEC87457FEC875BB
:2006A00003E9D200FEC87503E9CE012C027503E9F501FEC87503E92A022C027503E92902F4
:2006C000FEC87503E988022C027503E98702FEC87503E98802FEC87503E987022C03750349
:2006E000E98802FEC87503E9B8020E685457E8276BE93803E8BFFDE93203E89DFD1E688E8F
:2007000004E8346D0BC07503E92103C41E8E04268A07A2560126C607CCE91003E84539E9CE
:200720000A03E8493AE90403E8AD3BE9FE02E86F3CE9F8026A07E8CF6A6A00E8026B0BC006
:20074000752E8D46E81650E8EE6C0BC074096A01E8ED6A0BC07503E9D2028B46EAC41E7C88
:2007600004268947168B46E8C41E7C0426894714B801005EC9C36A00E8C56A0BC07503E9F4
:20078000A000C41E9E04268B4714268B57168946DA8956DC0E686B56E8056A83C4048B46FD
:2007A000DC0B46DA7439C45EDA26FF771226FF771426FF770E26FF771026FF770A26FF7793
:2007C000080E680256E8D86983C410C45EDA268B07268B57028946DA8956DC0BD075C78DFD
:2007E00046E41650E8C9696A0068E803FF76E6FF76E4E873688946E2506A0068E8038D468A
:20080000E41650E8A2675250FF3652040E689754E88D6983C40CE8912D6A04E8C2685BE974
:200820000A026A006A77E8016A0BC0742A8D46E21650E8596A0BC07503E9F0016A01E8FF70
:20084000690BC074538B56E2ED500E681D5BE84F6983C406E9D5018D46E21650E82F6A0B5C
:20086000C074356A01E8D8690BC0742C8B56E2EC2AE4500E68925BEBD56A01E8C2690BC097
:2008800074160E68DC53E8176983C404E8B56C6A01E8FA1A0BC07403E991016A01E8EE1AEE
:2008A0000BC074F7E985016A036A6CE87C690BC0740F6A01E889690BC07406680002E879E0
:2008C000276A036A67E862698946D86AFFE8564A0BC07503E95501837ED8007503E94C015F
:2008E000E98DFEE85A3BE943016A006A77E83A690BC0742B8D46E21650E892690BC074401D
:200900008D46E01650E886690BC074346A01E82F690BC0742B8B46E08B56E2EFE90D018D38
:2009200046E21650E867690BC074158D46DE1650E849690BC074096A01E804690BC0750321
:20094000E9E9008A46DE2AE48B56E2EEE9DD00E8DA5EE9D7006A00E8D43FE9CF00E8C83BAA
:20096000E9C900E832FC0BC0E970FF6A00E8D0680BC07406C646F000EB118D46F016506A32
:2009800010E8CC680BC07503E9A1006A01E8B0680BC07503E995008D46F08946EC8C56EEE4
:2009A000EB428D46DE1650E8D2680BC0747E6A01E88D680BC074756A01E84E610BC0746C6B
:2009C0008A46DE2AE450E84D30E8740D680003E86826EB586A01E867680BC0744F6A00E817
:2009E0001434EB486A00E857680BC074170E68DC63E8AC6783C4040E687A576A00E8F26728
:200A00000BC07428FF76EEFF76ECE883470BC0741BE8EEF78BF0E87F673BF0740F6A00E889
:200A2000E8600E68285FE8776783C404833E6E0401F51BC05EC9C3909090C80A0000575643
:200A4000837E1E017510F6461D01750A833E5401007403E97002FBC746FE01008B461E48F2
:200A60007503E9880048487503E9A1002DFE007503E9E9002DFEFE7503E9F100FF761E0E6A
:200A800068A963E81A6783C40680661DFEC70654010000A17C048B167E048946FA8956FC21
:200AA0008D4604A37C048C167E04837EFE0074056A01E8793E833E7404FF74066A01E81F72
:200AC000665B833E0400007503E9AF00E853100BD07503E99F00E8491050E849480BC07510
:200AE00003E99100C70604000100E98E00833E5401007488FF0E5401748FFF761AFF76189D
:200B00001E680600E8996683C408E9B901A190040B068E04743A8B46188B561A5250E887F5
:200B2000F6FF369004FF368E048BF08BFAE878F62BF01BFA83FE0175170BFF75130E68AEE5
:200B400057E85C6683C404E850F9FF4E18E939FF0E685764E8496683C404E92CFF0E688E67
:200B600062E83C6683C404E8E869E91CFFC746FE0000E914FFC70604000000A17404A8FF69
:200B8000751CC1E8073D0C007714932EFFA7900BB00BB00BF20BD20BD80BDE0BD20B837E44
:200BA0001EFF754E0E684A5EE8F56583C404EB42E829320BC074056A01E83A32833E040072
:200BC00000750A0E68BC61E8D66583C404E88269EB200E68285FEBD00E680D65EBCAFF362D
:200BE00076040E685B60E8B76583C406C70676040000C7067404FFFF833E0400007416C759
:200C000006040000008B46FA8B56FCA37C0489167E04E9B1008D460439065801770BA35858
:200C200001C70684040100EB24833E84040376190E68D157E8696583C4048B46FA8B56FC2C
:200C4000A37C0489167E04EB77FF068404E800F81E6812006A01E899650BC074F0C706801C
:200C60000400006A02E878645B8946F8407506E8AAF98946F88B46F840740648487430EB6F
:200C800029A16E048946F6C7066E040000833E80040075096A03E847645B40750D833E6E05
:200CA000040075068B46F6A36E04E8930AEB9E8B46FA8B56FCA37C0489167E04FF0E84044A
:200CC000C706820401005E5FC9C39090558BEC8B1E4604031E66042AE48A073D3D00741868
:200CE00077222C2074062C0C7408EB18F6460401EB0AF6460402EB04F64604047406FF06B4
:200D00006604EBCBC9C20200558BECFF7606E8F7646A01E80E663A46047509FF066604B8AC
:200D20000100EB0233C0C9C20400558BEC6A01E8D664A16604A368046A00E8E7650AC075F3
:200D400005B80100EB0F837E040074070E681A54E8C56433C0C9C2020090C804000056A193
:200D60006604A368046A03E89E64C746FE00008B46044874266A01E8AA650AC0741D3C20C8
:200D80007419C45E068B76FE268800FF0666048B460448FF46FE3B46FE77DAC45E068B7629
:200DA000FE26C600000BF67405B80100EB070E68D764E863645EC9C20600C8100000C646F1
:200DC000FE2BC746FA0000C646F2006A03E83864C45E062BC0268947022689078D46F61654
:200DE00050E86A3C8946FC0BC075408946F88946F6A16604A368046A00E8286550E8AC65FC
:200E00008946F03B46047723FF46FCFF066604FF76F8FF76F66A00FF7604E8AD610346F05A
:200E200083D2008946F68956F8EBCC8A46FE982D2A00740948741748487425EB33FF76F849
:200E4000FF76F6FF7608FF7606E83A61EB228B46F68B56F8C45E0626010726115702EB101E
:200E60008B46F68B56F8C45E06262907261957026A00E8AF648846FE807EF200740A837E1C
:200E8000FC00742C3C2A74378B46FC3946FA73038946FA807EFE2A740C807EFE2B74068059
:200EA0007EFE2D752AC646F201FF066604E92CFFC7066C0400000E68E75DE85B63EB13FFCE
:200EC000066804C7066C0400000E683C5EEBEB8B46FAC9C20600C80400008D46FC16506AB6
:200EE00010E882632D010072052D010076090E68C363E82363EB0C8A46FCC45E042688071B
:200F0000B80100C9C2040090C80400008D46FC16506A10E850632D010072052D030076098F
:200F20000E684763E8F162EB0C8B46FCC45E04268907B80100C9C2040090C80400008D463F
:200F4000FC16506A10E81E632D010072052D070076090E687762E8BF62EB138B46FC8B56F0
:200F6000FEC45E0426890726895702B80100C9C20400C80400008D46FC16506A0AE8E662A2
:200F80002D010072052D080076090E687064E88762EB138B46FC8B56FEC45E042689072631
:200FA000895702B80100C9C20400C81200005756C746FE0000A166048946FCA16C048946BF
:200FC000FA8B46048B56061E8D7EEE8BF016078EDAB90600F3A51FC746EE0000F646090886
:200FE0007510C746F00000C41E7C04268B47028946F8C7066C0401008D46F216506A10E881
:2010000064622D01007303E999002D020076134874342D01007303E989002D03007620E977
:2010200081006A006A2FE801620BC074198B46F28946F08D46F21650E865620BC07464C7C3
:2010400046FE0100EB5D33C08946F0506A3AE8D9610BC074288B46F28946F8C7066C04010C
:20106000008D46F21650E837620BC07436837EF4017730732EC7066C040000EB06F646099E
:201080008874208B46F28946F68B46F82BD2B104E8695F0146F21156F4C746FE0100C746D4
:2010A000EE00808B46FCA36804837EFE007435F646EF80752FFF76F4FF76F2E801F1894676
:2010C000F68956F8F64609407415837EF41077087306837EF0007407C746FE0000EB05C70A
:2010E00046FE01008B46FAA36C04837EFE0074141E8D76EE161FC47E04B90600F3A51FB88E
:201100000100EB158B46FCA36604F646091075070E689761E8016133C05E5FC9C20600909A
:20112000C80C00005756FF760CFF760AFF7608E892610BC07503E9AA006A036A6CE8EA608B
:201140000BC0740CFF7606FF7604E85361E99300F6460D20740E6A00E8E5600BC07405B8BA
:201160000100EB7F8B46088B560A1E8D7EF48BF016078EDAB90600F3A51FA16604A3680493
:20118000C7066C0401008B460C80CC08508D46F41650E82F610BC07509A36C040E68876032
:2011A000EB3EC7066C0400008B46F6C45E082639470275288B46F88B56FA26395706771CA0
:2011C0007206263947047314262B4704261B5706C45E0426890726895702EB830E68BE5F47
:2011E000E835605E5FC9C20A0090C80C0000C746FC0000C746F600006A00E843600BC0747C
:2012000003E987008D46F816506A10E858600BC074112D010072052D01007657C746F6011C
:2012200000EB5F6A00E828618846FE3C2274093C277405C746F60100837EF60075446A00E8
:20124000E80D618846F43A46FE750A6A0050E8D95F0BC0742D8A46F48B5EFC031E46048897
:2012600007FF46FC3C011BC0F7D88946F60BC074CDEB0F8A46F88B5EFC031E46048807FFCE
:2012800046FC837EF6007503E96DFF837EFC011BC040A38004837EF60075170BC075053907
:2012A0004604740E8B46FCC45E06268907B80100EB0DA16604A368040E68055FE8595FC9A9
:2012C000C2060090C8020000A178048B167A04B106E8FE5D8846FE50E8E75E8A46FE2A066F
:2012E0005C0124073C07750D8A46FEA25C011E680A00E8AB5EC9C3253031582F2530376CC2
:201300005800253034783A2530346C7800253034583A2530346C580000253F3F3F0025005E
:201320000D130213F7122813253031782F2530376C780090558BECA14C04483B066E0476D9
:20134000118A46048B1E4A04031E6E048807FF066E04C9C20200C8020000837E0600741B2B
:201360008B4608FF4E080BC07E11837E04011AC024F0043050FF165A01EBE5C9C20600900C
:20138000558BEC837E0800750D837E060A73078A46060430EB088A46060246042C21C9C274
:2013A0000600C80C0000C45E08268B078946F8C746FA0000268B47028946F6837E06007469
:2013C0004D26C41F268B4704268B57068946F88956FA268B47028946F6268B470A8946F489
:2013E00026F6470180750683460402EB218B46F8B104E8DD5C2B46F42500F00346F489468E
:20140000F62BD2B104E8F45B2946F81956FAFF76FAFF76F8FF76F68B5E0403DB0E2EFFB719
:201420002013E8DB02C9C2080090C83400005756C45E04268B07268B57028946FC8956FE58
:201440008D47048946F88C46FA8B4608A35A01E994022D2500740B8A46E450FF165A01E99D
:2014600084022BC08946EC8946EAC746E80A008946F68946F48946F28946EE8946E68946FE
:20148000F0C45EFCFF46FC268A078846E450E8DF5E2AE43D78007503E9D90077360AC07437
:2014A000392C25743A2C08743D2C037C262C097E3C2C2874532C027456FEC8746B2C0574F2
:2014C000672C037503E98F002C077503E98F002C02745AC746F00500EB58FF4EFCEBF4C733
:2014E00046F00300EB4CC746EE0100EB458A46E4986B4EF40A03C883E930894EF40BC975D2
:2015000031C746F60100EB2AC746F00400EB23C45EF88346F802895EEA8C46EC26C64701D2
:2015200000C746F00100EB0AC746E60100C746F00200837EF0007503E946FF8B46F04848DD
:201540007439487503E90301487503E90401487503E93C01E94101C746F20100EBD4C45E91
:20156000F8268B4702268B0F894EEA8946EC8346F804EBADC746E81000EBB2837EF20074D7
:2015800016C45EF88346F804268B07268B57028946D08956D2EB12C45EF88346F802268BB9
:2015A000078946D0C746D20000837EE6007446B8008033D28A4EF2C0E104E83F5A3B56D275
:2015C000770C72053B46D07705B80100EB0233C08946E60BC0741EF75ED08356D200F75E74
:2015E000D2837EF200750E8B46D080E47F8946D0C746D200008D5EE3895EEA8C56EC36C638
:2016000007008B46E82BD25250FF76D2FF76D08BF08BFAE8525A52508A46E450E861FDFF60
:201620004EEAC45EEA26880757568D46D01650E876590BD275CC0BC075C83946E67459FFED
:201640004EEAC45EEA26C6072DEB4DC746EA1E13EB43836EF409FF76F4837EEE011BC0F77F
:20166000D850FF76F6E8EEFCFF76FAFF76F8FF76F2807EE4617505B80100EB0233C050E834
:2016800020FDC746EA18138C4EEC8346F804EB08C746EA19138C4EECFF76ECFF76EAE8BF3D
:2016A0005E2946F4FF76F4837EEE011BC0F7D850FF76F6E8A0FCC45EEA26803F00741C8B1B
:2016C000C3895ECC8C46CE268A0750FF165A01FF46EAC45EEA26803F0075E4FF76F4FF7626
:2016E000EE6A00E870FCC45EFCFF46FC268A078846E4980BC07403E958FD5E5FC9C2060010
:20170000558BECFF365A018D46041650E81BFDC9C390558BEC833E6E0400751E683413FFD4
:201720007606FF7604E802FD833E700400740BFF3670040E68D360E8C6FF33C0C9C2040098
:20174000833E6E0400741C8B1E4A04031E6E04C607001EFF364A04E8465A83C404C7066EC0
:20176000040000C3C8020000A1680403066A04833E6C0400752F833E6E04007528C7065A88
:20178000013413500BC07E05B80100EB0233C0506A00E8C1FBFF7606FF76040E68D454E8F2
:2017A0005EFF83C40833C0C9C2040090558BEC833E0C0000750CC7060C000100E8155AA27E
:2017C0005E01837E0400740FA05E0150E8F359C7060C000000EB19A178048B167A04B108CD
:2017E000E8EF588BC880E107B001D2E050E8D259C9C20200082008000700C8040000C706DC
:2018000082040000833E7204007506837E04007403E8E45BFF7608FF76060E682D56E87F95
:201820005983C408E82B5D833E8204007512E8055D0BC0750B50E873FF833E82040074EEDA
:20184000833E820400740C0E680F5DE8525983C404EBABE8C25C50E8165B2AE48946FE3DA4
:2018600079007505B80100EB0233C08946FC0BC0750C837EFE6E74060E68F817EBCDFF762C
:20188000FE0E68F15AE8185983C4066A01E81CFFE8B15C8B46FCC9C20600C80A0000C74643
:2018A000FA4F00837E04007416FF7608FF7606E8AE5CA36A04B84F002B066A048946FAC71F
:2018C00046FC0100C70666040000C7068204010033C08946FE8946F6837E0400745A833E21
:2018E0008204007512E84E5C0BC0750B50E8BCFE833E82040074EE833E820400743AC706A1
:2019000082040000833E7204007403E8EA5A837EFC00750A0E680F5DE8855883C404C746EC
:20192000FC0000FF7608FF7606E8745883C404C70666040000E9BF00E8DD5B247F8846F84C
:201940002AE42D0800747C484874052D03007503E98700807EF8097504C646F820807EF8A1
:2019600020723DA166043946FA76298A46F88B1E4604031E66048807FF066604837E04002C
:2019800074758A46F82AE4501E680E00E8115883C406EB630E68F817E8055883C404EB5761
:2019A0008A46F82AE4500E689A5BE8F3578B1E460483C406C60700C746F60100C746FE0048
:2019C00000EB34833E660400742DFF0E6604837E040074230E68F417EBBE8B1E4604031ECB
:2019E0006604C60700837E04007403E80A5AB801008946F68946FE837EF6007503E9D8FE6F
:201A000033C0A36804A3660439460474056A01E89AFD8B46FEC9C2060090A146008B164811
:201A200000C3FFFFFFFF5800030000005200000000004C0000000E00460001000000400059
:201A4000000000003A0000FA00003400010000002E00000000002800004B00002200005A00
:201A600062021C001C1B221AFFFFFFFF0A1B581AFFFFFFFF131B5E1AFFFFFFFFF51A521AC7
:201A8000FFFFFFFF061B4C1AFFFFFFFFFB1A461AFFFFFFFFED1A401AFFFFFFFFE11A3A1AAA
:201AA000FFFFFFFFD41A341AFFFFFFFFCC1A2E1AFFFFFFFFC41A281AFFFFFFFF00000000AC
:201AC00000000000756D63735F7773006C6D63735F77730070726F74656374666C617368FE
:201AE000006D6F6E69746F72706F7274006175746F72756E0068686B6579007265667265DE
:201B000073685F687A006C6564006261756472617465006370757370656564006E756C6C18
:201B20000090A13A008B163C00C3BAF4FFED80E4F080FC407508B8FFFFBA26FFEEC3B8FF76
:201B4000FFBA28FFEEC3E82B10E8FC0452506A01E8270EC3BAF6FFED80FC40750DBAA2FFC7
:201B6000ED3D3C7F7504B80100C333C0C390C8C60000A1400034018946FC33C08946FE898D
:201B800046FAC746F4FFFFBAF4FFED2500F074472D001074152D001074382D001074422DCD
:201BA00000107503E9AA00E91603C606130073C746FE0100BAA0FFED24FCEFE896FF0BC00D
:201BC0007503E9FB02C746F4F3FFC746FA0200E9EE02C606130072BAA0FFED24FCEFE9DF64
:201BE00002C606130064B001C746FE0100A23800A25000A25600BAF6FFEDF6C401753ABA5F
:201C0000A2FFED24FC8A0E4C0083E1030BC1EFBAA0FFED24FC8A0E520083E1030BC1EFFF9F
:201C2000363600FF363400FF361E00FF361C00E8D65380E407BAE2FFEFBAF6FFED2500F074
:201C40002D00807485C746FA01008076FC01E96F02B063A21200A21300C746FE0200B0014F
:201C6000A23800A25000A25600BAF0FFED80E4FE80CC02EFBADEFFEDF6C401753ABAA2FF22
:201C8000ED24FC8A0E4C0083E1030BC1EFBAA0FFED24FC8A0E520083E1030BC1EFFF363654
:201CA00000FF363400FF361E00FF361C00E8585380E407BAAAFFEFBADEFFED2500F02D0001
:201CC00040740C2D00407413C746FA0400EB11C606170074C606180061EBEDC746FA0300CB
:201CE000BADEFFEDA8807503E9D501C746FA0500BAA8FFED0C10EFB83C00BA0503EEB886BA
:201D0000CCBA0603EFB83800BA0C03EEC746E00000817EE000057D0AFF46E0817EE000053D
:201D20007CF6C746DE0000817EDE00057D0AFF46DE817EDE00057CF6B80E00BA0C03EEC722
:201D400046DC0000817EDC00057D0AFF46DC817EDC00057CF6C746DA0000817EDA00057D45
:201D60000AFF46DA817EDA00057CF6B80600BA0C03EEC746D80000817ED800057D0AFF46E8
:201D8000D8817ED800057CF6C746D60000817ED600057D0AFF46D6817ED600057CF6B801B9
:201DA00000BA0C03EEC746D40000817ED400057D0AFF46D4817ED400057CF6C746D20000EA
:201DC000817ED200057D0AFF46D2817ED200057CF6B84100BA0E03EEC746D00000817ED0E9
:201DE00000057D0AFF46D0817ED000057CF6B84D00BA0E03EEC746CE0000817ECE00057D14
:201E00000AFF46CE817ECE00057CF6B84400BA0E03EEC746CC0000817ECC00057D0AFF4637
:201E2000CC817ECC00057CF6B82000BA0E03EEC746CA0000817ECA00057D0AFF46CA817EC9
:201E4000CA00057CF6B83300BA0E03EEC746C80000817EC800057D0AFF46C8817EC800059C
:201E60007CF6B82E00BA0E03EEC746C60000817EC600057D0AFF46C6817EC600057CF6B82E
:201E80003400BA0E03EEC746C40000817EC400057D0AFF46C4817EC400057CF6B83200BA4E
:201EA0000E03EEC746C20000817EC200057D0AFF46C2817EC200057CF6B82000BA0E03EE37
:201EC000FF7604FF361E00FF361C00E8F20CFF7604FF76FEFF76FCFF362400FF362200FFF3
:201EE000361E00FF361C00E86402E85B018BD88EC2268B47288946F6FF76FAFF362E00E859
:201F00009E0E8946F8BAF4FFED80E4F080FC407534BAC0FFED8946EEBAC2FFED8946E8BAFF
:201F2000CAFFED8946F0BACCFFED8946EABAD4FFED8946F2BAD6FFED8946EC33C08946E4E9
:201F40008946E6EB21BA70FFED8946EEBA72FFED8946E8BA76FFED8946F0BA78FFED894656
:201F6000EA33C08946E48B46F80946EE0946E8837EF4FF7417B83881BAA8FFEEB87700BA6C
:201F8000A4FFEE8B46F42146F02146EA8B46F62146F02146EA833E2800007411804EF0CBDD
:201FA000804EEA308066EA34C746E44A00BAF4FFED80E4F080FC407562BADEFFED2500F0E0
:201FC0002D0040750FC746E8FF06C746EAFE9FC746ECF1FF8066ED3F804EF3808B46F2BAC9
:201FE000D4FFEE8B46ECBAD6FFEE8B46E6BAD8FFEE8B46F0BACAFFEE8B46EABACCFFEE8BC5
:2020000046E4BACEFFEE8B46EEBAC0FFEE8B46E8BAC2FFEE33C0BAC4FFEB288B46F0BA7665
:20202000FFEE8B46EABA78FFEE8B46E4BA7AFFEE8B46EEBA70FFEE8B46E8BA72FFEE33C068
:20204000BA74FFEEC9C202006B0662002C03065E008CCAC3010204081020408040201008E2
:2020600004020102040810204080402010080402010060FE64FE68FE6AFE6EFE06FF20FFBE
:202080000D003000380000006000E0000001800040000002380210000000EEFB010480FE12
:2020A00084FE88FE8AFE8EFE16FF20FF1B003000380000006000E00000018000400000024A
:2020C000380210000000EEFB000410FF12FF14FF16FF18FF42FF22FF11001000180041008E
:2020E0006100E10000018000400000043804100000003FE7801080FF82FF84FF86FF88FF48
:2021000044FF22FF14001000180041006100E10000018000400000043804100000003FE765
:20212000800080FF82FF84FF86FF88FF44FF22FF1400100018001400150017040008100094
:20214000200008000F0020000100FFE70010C8040000837E100074698B460E48740548741B
:202160000AEB1DC7065E00CA20EB06C7065E007220C706600002008A460C250100A3620054
:20218000FF760AFF76088B1E5E006A002EFF7724E8374E5250FF760AFF76088B1E5E002ECA
:2021A0008B4724D1E86A0050E81F4E0346041356065250E8524E8B1E5E002E2B4726A39279
:2021C00004C746FE0000833E6000007421C746FC0000A15E000346FC0E506A00E89B078318
:2021E00046FC2CA16000FF46FE3946FE72E48B46048B5606A360018916620183FA0F771382
:2022000072053D4042730CC70660014042C70662010F00813E6201890972167708813E6040
:20222000010068760CC70660010068C70662018909C9C20E0090C82A0000C746E801003317
:20224000C08846E48946E68946EE8D46F08946DC8B46048B560640408946D88956DAC45E6E
:20226000D8268B07C45E04262B078B5EDC36890736C747020000837EEE0074268B5EDC36FB
:202280008B07368B570283EB043639570272137705363907760C8B5EDC36830700368357CA
:2022A00002018346DC048346D802FF46EE837EEE0472AB8B46FC8B56FE05040083D200B1D1
:2022C00003E80E4E8946EA8956EC0BD0750533C0E9B600C746EE00008D46F08946D6FF7674
:2022E000ECFF76EA8B5ED6368B07368B5702B103E8094D8B4EEA8B5EECD1EBD1D903C1132B
:20230000D35250E8024D8BC8C1E8038946E083E107894EDE83F901760583F90772B08B46D5
:20232000E63946E076168A4EE68A46E8D2E00846E48B46E0FF46E63946E672EAB801002BF1
:2023400046E88946E88346D604FF46EE837EEE03728C807EE4617409807EE4417403E96D22
:20236000FFC45E08268B47248BC803C06A00502BC0034EFC1346FE5051E88C4CC45E082608
:202380002B4726A39204B80100C9C2080090C862000057568B1E5E002E8B472A8946F28344
:2023A0007E0400740FFA6B0662002C03D80E536A00E8C605BAF4FFED80E4F080FC40756146
:2023C000BA54FFED8946FEBA50FFED8946FCBAA8FFED8946FAA16201C1E8028946F803C025
:2023E000B91E002BD2F7F18946F6C746F40000B80040BA50FFEE33C0BA54FFEEBA52FFEE85
:20240000B801C0BA50FFEEBADEFFEDA8807478B8AA00BA0603EE8B46FA24EFBAA8FFEEEB89
:2024200066BA62FFED8946FEBA66FFED8946FCA16201C1E8028946F803C0B91E002BD2F786
:20244000F18946F6C746F40000B80040BA66FFEE33C0BA62FFEEBA60FFEEB801C0BA66FF25
:20246000EEC746EE00008B5EEE2E8A87542050E8504DBA72FFED8B76EE03F68942A6FF465E
:20248000EE837EEE3C72DF8B46A63946A87405B80100EB0233C08946ECBAF4FFED80E4F079
:2024A00080FC407403E92701FC8D76A6B91F008B5EF2BF00001607B6FFB2CEED23C33BC39E
:2024C0007545B250EDA82074F025DFBFEEB2CEED23C33BC375314F79E08B7EF649745EEDD0
:2024E00023C33BC37521837EEC0074CDED23C33BC37514BA0503368B0483C602EEBACEFF93
:20250000ED23C33BC374B233C38BF0B928238D7EE233DB497492ED33C323C674F6B2526D5E
:20252000F7D38D46EC3BF8730CB2CEED33C323C675EBE9DEFFC746F401008976F0837EF408
:202540000074170EFF365E008D46E21650E8E6FC8946F40BC07503E94EFF837EF400741EA7
:20256000833E60000176178B46F08B1E5E002E3947567505B80100EB0233C0A36200B80010
:2025800040BA50FFEE8B46FC80CC40EE33C0BA52FFEE8B46FEBA54FFEE8B46FABAA8FFEEED
:2025A0006B1E62002C031E5E002E8B5706ED2E8B47028946A28BD033C0EEBADEFFEDA88027
:2025C0007503E91301B886CCBA0603EFE90901FC8D76A6B91F008B5EF2BF00001607B6FFEE
:2025E000B27AED23C33BC37543B266EDA82074F025DFBFEEB27AED23C33BC3752F4F79E0FB
:202600008B7EF649745CED23C33BC3751F837EEC0074CDED23C33BC37512B272368B04834B
:20262000C602EEB27AED23C33BC374B433C38BF0B928238D7EE233DB497494ED33C323C632
:2026400074F6B2606DF7D38D46EC3BF8730CB27AED33C323C675EBE9DEFFC746F4010089AD
:2026600076F0837EF40074170EFF365E008D46E21650E8C1FB8946F40BC07503E950FF8353
:202680007EF400741E833E60000176178B46F08B1E5E002E3947567505B80100EB0233C0A8
:2026A000A36200B80040BA66FFEE8B46FC80CC40EE33C0BA60FFEE8B46FEBA62FFEE6B1E6E
:2026C00062002C031E5E002E8B5706ED2E8B47028946A28BD033C0EE837E04007417837EAA
:2026E000F40074106B0662002C03065E000E506A01E88602FB8B46F45E5FC9C20200C844AD
:2027000000008B166601ED8946FE2306800174088B166A01ED8846FCA186018546FE7407A2
:2027200033C08B166601EE8B166401ED8946F8A17A01EEA172018B167001EEA0A2028A0EFC
:20274000A0022AC1FEC82AE48946FA8B46FE09069C042306800174648A46FC2AE42D110037
:20276000744C48487450837EFA007507800E9D0480EB49A1A0028946DE8B5EDE8A46FC88E0
:202780008790018D4701A3A0028126A002FF00817EFAB0007326833EA802011BC0F7D8A3C4
:2027A000AA020BC07416A17E010946F8EB0EC706AC020000EBF0C706AC020100A17E018541
:2027C00046F8747DA182018546FE7475833EAA02007416B813008B166801EEC706AA0200C1
:2027E00000C706A8020100EB58833EA802007417817EFAD8007610B811008B166801EEC749
:2028000006A8020000EB3AA1A4023906A6027429833EAC02007522A1A6028946CC8B46CC91
:2028200040A3A6028B5ECC2AE48A8790028B166801EE8326A6020FEB08A17E01F7D021460E
:20284000F88B46F88B166401EEA184018546FE7406680101E8C6DBC9CB909090C80E00004D
:20286000837E06007406B8FFFFE909011E8ED88A4609980BC0741848746E487503E9B90056
:20288000487503E9C900487503E9CB00E9DD00FAA0A402FEC0250F008946FA8B0EA60289C7
:2028A00046F83BC17405B80100EB0233C08946FE0BC074118B1EA4028A4608888790028B5C
:2028C00046F8A3A402FBA17C010B067E018946F28B0E6401894EF48BD1EE837EFE0074AFD2
:2028E000C746FC0000E98900C746FCFFFFFAA1A0023906A20274158B1EA2022AE48A8790B1
:20290000018946FCFEC32AFF891EA202FB833EA80200745DA0A2028A0EA0022AC1FEC83C14
:20292000D8764EA17C010B067E018946F88B0E6401894EF68BD1EEEB38A1A4023906A60220
:2029400075F78B166401ED85067E017424EBEAA1A002A3A202EB1AA1A0023906A202740573
:20296000B80100EB0233C08946FCEB05C746FCFFFF1F8B46FCC9CA040090C838000057563C
:20298000C45E06268B4714268B17EE268B470E268B570CEE268B4712268B570AEEA1920404
:2029A000268B5708EE268B5706ED33C0268B5702EE26FF770EE85006837E0400745933C086
:2029C000C706A0020000A3A202A3A402C706A6020000C706A802010033C0C7069C040000AB
:2029E000A3AA02A3AC028B46068B56081EBF64018BF01E078EDAB91600F3A51FFF367201FF
:202A00001E686C00E8D905A174018B166E01EEA17C018B166401EE5E5FC9C2060090BA62DE
:202A2000FFED3B067A00750ABA5AFFED3B067C00745BBA62FFEDA37A00482BD20501001361
:202A4000D2A3820089168400FF36B202FF36B002B10FE8A7455250E8AE4503C013D2A382AE
:202A600000891684008BCABA5AFF8BD8EDA37C00482BD205010013D2A37E0089168000529A
:202A8000505153E84445A37E0089168000A17E008B1680000106B4021116B6028B16B6025C
:202AA0002BC901167804110E7A04890EB602C706AE020100BA5EFFED25DFBFEEB80800BAF6
:202AC00022FFEECBBA54FFED3B067A00750ABA4CFFED3B067C00745BBA54FFEDA37A00480B
:202AE0002BD205010013D2A3820089168400FF36B202FF36B002B10FE801455250E8084511
:202B000003C013D2A38200891684008BCABA4CFF8BD8EDA37C00482BD205010013D2A37EAB
:202B2000008916800052505153E89E44A37E0089168000A17E008B1680000106B402111602
:202B4000B6028B16B6022BC901167804110E7A04890EB602C706AE020100BA48FFED25DF81
:202B6000BFEEB80900BA20FFEECBA1AE02C706AE020000C3BAF4FFED80E4F080FC40751C89
:202B80006A091E688600E85704B80900BA20FFEEB83700BA00FFEEBA48FFEB1A6A121E684D
:202BA0009400E83B04B80800BA22FFEEB81700BA32FFEEBA5EFFED25DFBF80CC20EEC390B5
:202BC000C87000006A0068A00FFF7606FF7604E83644A3B0028916B202837E0800740E2B88
:202BE000C0A37A04A37804A3B602A3B402C7067C000000BAF4FFED80E4F080FC407530A1E8
:202C0000B002BA54FFEE33C0BA52FFEEB801C0BA50FFEEB83200BA4CFFEE33C0BA4AFFEEEA
:202C2000B809C0BA48FFEEB83F00BA00FFEB2EA1B002BA62FFEE33C0BA60FFEEB801C0BAD2
:202C400066FFEEB83200BA5AFFEE33C0BA58FFEEB809C0BA5EFFEEB81800BA32FFEEC9C28A
:202C60000600C81A0000BAF4FFED80E4F080FC40753BA178048B167A048946FC8956FEA18D
:202C8000B4028B16B6028946F88956FABA4AFFED8946F6E8D4FE0BC075D8BA4CFFED3B468B
:202CA000F6774433C08946F6BA4AFFEB39A178048B167A048946FC8956FEA1B4028B16B6F2
:202CC000028946F88956FABA58FFED8946F6E899FE0BC075D8BA5AFFED3B46F6770933C00E
:202CE0008946F6BA58FFEEFF368400FF3682006A00FF76F6E8D3420346F81356FA2BC90333
:202D000056FC134EFEC45E0426891726894F02C9C2040090C808000056F65604833EA2001E
:202D2000007444BAF4FFED80E4F080FC407514BADEFFEDA88074308A46042AE4F7D0BA05F0
:202D400003EB23BA72FFED8B0EB802F7D123C18A0EBA028A5E042AFF8BF3D3E32ADB0BF3AB
:202D60002336B8020BC6EE5EC9C20200BAF4FFED80E4F080FC407510BADEFFEDA880740542
:202D8000BA0503ECC332C0C3BA72FFEDF7D02306B8028BC88BD08A0EBA02D3E802C2C39077
:202DA000558BEC8B4604A3A2000BC074513D31D47505C7460602008B460648741A4874253E
:202DC00048743048742D48742AC706B8023FC0C706BA020800EB24C706B8023F60C706BA65
:202DE000020700EB16C706B8027F04C706BA020300EB0833C0A3B802A3BA02A1B802C9C2AB
:202E00000400C8100000C746FC0000C746FE10002BC08946FA8946F8C45E10268B470426E3
:202E20008B57068946F08956F2837E0400740E26837F02007407C746040100EB05C74604DB
:202E40000000837E04007503E9C200E8B4D32BD2B104E8A7418946F48956F6E840048946C6
:202E6000FC8956FE6A00E8593D8946F88956FA3B56F2724377053B46F0763CE81A432BD2D8
:202E8000B104E877418946F48956F6C746040000FF365004FF364E04E80DD38946F88956B6
:202EA000FAA152042BD2B104E851410346F81356FA8946FC8956FE8B46F48B56F63956F28C
:202EC000772772053946F073208B46FC8B56FE3956F6773972053946F473328B46F48B56C5
:202EE000F68946FC8956FEEB248B46F88B56FA3956F6721977053946F476128B46F48B5654
:202F0000F680C48083D2008946F88956FA8B46062BD22946FC1956FEC45E1026837F0201F9
:202F200077558B46FC8B56FE3956F2774A72053946F077438B46F88B56FA3956F2723877F1
:202F4000053946F07231837E04007414FF76F2FF76F0FF760AFF7608FF7606E8780CEB270C
:202F6000FF760EFF760CFF760AFF7608FF7606E88246B80100EB10FF7606FF7612FF7610EB
:202F80000E684E59E87F44C9C2100090558BECFF760CFF760AFF7608FF7606C45E0A26FF29
:202FA000770626FF7704E816D25250FF76046A00E84FFEC9C20A0090558BECC45E0A0653F4
:202FC00026FF770626FF7704E8F4D15250FF7608FF7606FF76046A01E827FEC9C20A009052
:202FE000558BEC8B46048B56068B5E08C1E3022BC98EC126890726895702C9C20600454D8E
:203000004F4E444154410090558BECFF7604E8F1D10346048BD02BC98B4604C1E0042BC871
:2030200083DA0081C1197683D20083C1F083D2005251E8ABFFC9C2020090558BECE8044535
:20304000FF7604E807D2C9C20200558BEC0E68FE2F8B461A8B561C52506A08E86E450BC0D8
:203060007406680005E8E5D183461A08A1A004894614A19E04894618C9CBC8020000C74623
:20308000FE0000FF76FEE87FFFFF46FE817EFE000172F06A031E68A400E844FF6A201E68E4
:2030A000B200E83BFFC9C390C80A0000A158048B165A04EB0AC45EFC268B07268B570289F4
:2030C00046FC8956FE8BC20B46FC7424C45EFC268B4704268B57068946F88956FA8BC28901
:2030E00056F61E8E5EF6FF7604FF5EF85B1FEBC5C9C20200C80E0000813E74040001770575
:20310000B80100EB0233C08946FE813E740400057705B80100EB0233C08946FC8946FA2B39
:20312000C9890E9004890E8E040BC0740B6A02E876FFE8F5E9E842FF833E740400750B6A4D
:2031400001E8C1D1E8D704E842356A00E8B6D1837EFC007409FF76FEE813EAE8923D837E6F
:20316000FE007458E837012D100083DA005250E84DD08946F68956F86A00E811F23D0100F5
:203180001BC0F7D88946FAA304000BC07407E84B0C0BC075E3833E0400007420C45EF626D6
:2031A000833FFF750726837F02FF7410C706040000006A006A00FF5EF683C404837EFC00E5
:2031C000741EE881E9837EFA007410E84E3A813E7404000574056A00E831416A01E8C8FE8A
:2031E000C9C30E682358833EC200011BC04050E8244283C406C30000F55A000000000000B6
:203200002020EA5A800010002000A4A4935A000240004000D5D58A5A000440004000ADAD57
:20322000125A000840004000DF22065A800000004000D9227D5980000100200057227259C3
:2032400000010000400051220C59000101002000AB22475800020000400023220B580002DB
:2032600001002000BA22C657000200004000B922715700020100200058224C57000400000B
:203280004000D622A1560002010020000000F55A000000000000A1BE028B16C002C3833E45
:2032A000C200007507B80080BA0F00C3A1C2028B16C402C3E82BFF0BC07407A1C602F7269F
:2032C000BC02C390558BECA1BC0248740548740DEB148A4604C45E06268807EB098B4604AF
:2032E000C45E06268907C9C20600558BECFF7608FF7606E8C9CE5250FF7604E8C6FFC9C2C9
:203300000600558BECA1BC0248740748740E33C0EB10C45E042AE4268A07EB06C45E0426D9
:203320008B07C9C20400558BECFF7606FF7604E88DCE5250E8CBFFC9C2040090558BECA189
:20334000BC0248750CC64605008A66042AC00946048B4604C9C20200558BECFF7606FF7686
:2033600004E8C2FF50E8D4FFC9C20400A1BC020306C000B95555F7E10306BE021316C002EF
:20338000525068AAAAE862FFA1BC020306C000B9AA2AF7E10306BE021316C00252506855E6
:2033A00055E846FFC390558BECE8C0FFA1BC020306C000B95555F7E10306BE021316C002AE
:2033C0005250FF7604E822FFC9C20200558BEC8B46060BC07405487426EB458B46083D200D
:2033E000007438770C0AC0742B2C10740B2C087407C746064000EB28C746060800EB218BB3
:2034000046042B46083D4000741177E52C1074042C08EBD7C746061000EB05C7460620009B
:203420008B4606034608C9C20600558BEC8B46128B5E1083461002890750FF7606FF76047C
:20344000E889FF8946122BD2B10AE8AF3B0306BE021316C0023B560A72D377053B46087682
:20346000CC8B5E10C707FFFF8D47FCC45E0C268907C9C2100090C80400006B1EC2000A2E8D
:203480008B87FC318946FE2E8B8FFA31894EFC2E8B8FFE31890EC202C706C40200003D0830
:2034A000007625833EBC0201761ED166FCD166FE8B46FE2BD23B16C402720D77043BC176A6
:2034C00007A3C2028916C4028B46FC2BD2F736BC02A3C6026A0068C8021E681803B8000400
:2034E000992B06C2021B16C402B10AE80E3BA3C2028916C4025250FF76FEFF76FCE82AFFF8
:203500008B1E1803FF7702680A031E6816036A106A00FF76FEFF76FCE80FFFC9C390C808B1
:203520000000C746FE0000C45E0826837F02FF7475895EFA8C46FCC45E04268B0F26FF0783
:20354000894EF8C45EFA2BD2268B07B10AE8AC3A0306BE021316C002B104E8753B50FF767C
:20356000F80E684965E8383C83C408C45E084343895E0826837F02FF740A0E687A59E81FEE
:203580003C83C404FF46FE837EFE04720FC746FE00001E68C400E8073C83C404C45E0826C2
:2035A000837F02FF758BC9C20800C8020000C746FE0000E82CFC0BC07450A1BC02C1E003FE
:2035C00050A1C60250F726BC02506B1EC2000A0E2EFFB7F8310E68BC55E8C43B83C40E1E66
:2035E00068C8028D46FE1650E833FF0E688654E8AE3B83C4041E680A038D46FE1650E81D0D
:20360000FFE8F43DE8F13DB80100C9C3A1BE028B16C0022D000083DA0803C013D2C3C8109E
:203620000000E8C3340BC0750C0E681459E8D63D83C404C9C3C706BE020000C706C0020E80
:2036400000C706BC020200A1BE028B16C0028946FC8956FE833EBC02007519833EC00000E3
:203660007403E9B300C706BC020200C706C0000100E9A400FF76FEFF76FCE8A9FC33C083A8
:203680007EFE1077027216E882FFA3BE028916C00283FA0877AB7303E95C01EBA4689090F6
:2036A000E803FDFF76FEFF76FCE8ACFC8946F8A1BC020306C0002BD20346FC1356FE525074
:2036C000E895FC8946FAFF36C002FF36BE0268F0F0E816FC817EF80101740C837EF8017592
:2036E00037807EFB227531C706C20001002E833E00320074236B1EC2000A2EFFB7F631E842
:203700003AFC3B46FA7418FF06C2006B1EC2000A2E83BFF6310075DDFF0EBC02E928FF6B21
:203720001EC2000A2E8B87FA312BD2B10AE8CC388946F48956F6807EFB22740E6A00FF36BC
:20374000BC028D46F41650E83C38833EC002087303E98F007707833EBE0200741233C0BA77
:2037600010002B06BE021B16C0023956F67302EB7277053946F4766BE891FE8946FC89560D
:20378000FE689090E81FFCFF76FEFF76FCE8C8FB8946F2A1BC020306C0002BD20346FC13D3
:2037A00056FE5250E8B1FB8946F0FF36C002FF36BE0268F0F0E832FB8B46F83946F27523A5
:2037C0008B46FA3946F0751B8B46FC8B56FEA3BE028916C00283FA08778372070BC0740375
:2037E000E97AFFE890FC833EBC02017505C606150038B80100C9C3C706C2000000E8E2F949
:20380000C9C39090C8080000FF760AFF7608E8F1FA8946FEA1D600FF06D6003DE80376168A
:20382000C706D6000000837E06007507833E8604007403E88EDA8B46FE8946FCFF760AFF38
:203840007608E8BDFA8946FE3346FC2540408946FA0BC0740A8B46FC03C08546FA74B58351
:203860007E06007413FF76FEE8D1FA2580803D80807513B80100EB10FF760AFF7608E88114
:20388000FA3B460474ED33C0C9C20800C8040000FF7608FF7606E826C98946FC8956FE8BF4
:2038A000460424FE0146FC836EFC027409C45EFC26833FFF74F1C45EFC26833FFF7505B84C
:2038C0000100EB0233C0C9C20600C8120000C45E062BD2268B07B10AE821370306BE0213E8
:2038E00016C0028946FC8956FEC45E062BD2268B4702B10AE805370306BE021316C002890D
:2039000046F88956FAE812E18946F48956F68B1E18032BD28B07B10AE8E1360306BE021334
:2039200016C0028946F08956F2C45E0626833FFF740726837F02FF7503E9CE00FF76FEFFCB
:2039400076FC0E680D64E8573883C408837E0400743C8B46F60B46F474348B46F88B56FA3B
:203960003956F6772972053946F473228B46FC8B56FE3956F2721777053946F076100E6806
:203980005D63E81B3883C404B80100E98300816EF80020835EFA00FF76FAFF76F868002076
:2039A000E8E9FE0BC074148B46FC8B56FE3956FA77DC72453946F877D5EB3E688080E8E585
:2039C000F9E8A8F9FF76FEFF76FC683030E81AF9FF76FEFF76FCE8E6C752506A016A00E8E6
:2039E00022FE8946EEFF36C002FF36BE0268F0F0E8F7F8837EEE007405E8FC39EB130E68E6
:203A0000A956E8013A83C404EB070E688D57E8F539C9C2060090C80E0000C746FE0000C70E
:203A200046FAC8028C5EFCA118038946F6E8B2F70BC07407E8B1300BC07503E9B400837E94
:203A400004FF7525E8BBC72BD2B104E8AE353B06C20275063B16C402743FC746FA0A038CF8
:203A60005EFCA116034848EB64E896C72BD2B104E889353B16C002722677063B06BE02721B
:203A80001EE87EC72BD2B104E871353B16C402770E72063B06C20273060E689E64EB5783CC
:203AA0007E040A7507C746FE0100EB248B46F62DC802D1F83B460473060E682665EB378BB0
:203AC000460403C005C8028946FA8C5EFC8946F68B46FA3946F672158B56FC8346FA0252DB
:203AE00050FF76FEE8E3FD0BC075E5EB0CB80100EB070E681459E80D39C9C2020090C80678
:203B00000000FF7608FF7606E8B4C68946FC8956FE5250E8ECF78946FA833EBC0201750474
:203B2000C64605008B46043946FA74638B46FAF7D023460450E804F80BC0740C0E685354B4
:203B4000E8C33883C404EB4A68A0A0E858F8FF76FEFF76FCFF7604E86AF7FF76FEFF76FC98
:203B60006A00FF7604E89CFC0BC07523FF76FEFF76FCE88DF750FF7604FF76FEFF76FC1E64
:203B800068D800E81A3683C40C0E689655EBB1B80100C9C20600C804000056A1BC02482327
:203BA00046068946FE2BD22946061956088B46068B56085250E86EF78946FC8A46048B76B4
:203BC000FE8842FCFF7608FF7606FF76FCE82EFF5EC9C2060090558BECE806F60BC074072E
:203BE000E8052F0BC07502EB75837E04007466A1BC024823460A7535A1BC02394604722DE3
:203C0000724DFF760CFF760AC45E0626FF37E8EDFE0BC07445A1BC020146062BD201460A10
:203C200011560C29460439460473D7EB22FF760CFF760AC45E06268A0750E859FF0BC07416
:203C400019FF460683460A0183560C00FF4E04837E0400759AB80100EB0B33C0EB070E68D8
:203C60001459E8A137C9C20A0090C8080000A1C2028B16C4028946FC8956FE2BC08946FAFA
:203C80008946F8FF76FEFF76FCE833C55250680080E84EC50146F81156FA8046FD80835658
:203CA000FE00837EFE1072DB8B46F88B56FAC9C3C80E0000E8B3FF8946FC8956FEA1C200FF
:203CC0008946FAE891C66A00E84136C706880401006A006A01E8102D0BC0740D0E68EC60B1
:203CE0006A01E8F7340BC07503E9EA00BAF4FFED80E4F080FC40751CBAA0FFEDA82074145F
:203D00000E6808606A01E8D3340BC07407BAA0FFED24DFEFE807F90BC07528BAF4FFED8083
:203D2000E4F080FC407508BAA0FFEDA8207503E9A400ED8946F224DFEFE8E2F80BC07503BE
:203D4000E98C00A1C2003946FA750DE81CFF3B46FC75053B56FE74841EFF3616036A00E851
:203D600068FB0BC074706AFFE8ABFC0BC074670E68B95CE82A3483C404C70686040100C659
:203D800046F4EAFF36C402FF36C202E831C48946F58956F7FF36C402FF36C202E8F9332B61
:203DA000C95051E867C450E82CFE0BC074286A0F6AF08D46F416506A05E81AFE0BC07416F9
:203DC0000E682B5CE8D93383C404B80100C9C38B46F2BAA0FFEF33C0C9C390906A0F6AF0E5
:203DE000E8DCC38EC28BD826813FEB057504B80100C333C0C390C81C0000C646F3EBC6469E
:203E0000F40533C08946EF8946F18946F68946F8B0EA8846EE8846F58846FAC746FBEB00D8
:203E2000C746FDF0FF837E0400740AE8AEFF0BC07503E929026A01E8D02CE8E1F70BC075CB
:203E400003E91A02E8BBC32BD2B104E8AE318946E88956EAA1C2028B16C4023946E875450E
:203E60003956EA7540837E04007506E842FEE9ED01C646F4006A0F6AF18D46F416506A0129
:203E8000E853FD0BC0740E1EFF3618036A00E839FA0BC07503E9C6010E682B5CE80133831B
:203EA000C404E9B901E8F6F32D100083DA005250E80CC38946E48956E6E846C38946F1A109
:203EC000C2028B16C402B104E807328946F8E8D2C22946FBE8CCC23DE0007607C746EC2506
:203EE0005BEB68E827C32BD2B900FEBB0F002B0EC2021B1EC4023BD3720D77043BC1760747
:203F0000C746ECD45AEB448B46E88B56EA2B06C2021B16C4023D0080750583FAFF7407C7E6
:203F200046EC6A5AEB25E8D9C2C45EE426394703751426837F0100750D26803FEA7507C703
:203F400046EC0000EB05C746EC8559837EEC0074110EFF76EC0E68A35BE8443283C408E97D
:203F6000FC00837E040074060E68655DEB2D6A016A00E8732A0BC07503E9E2000E685162E5
:203F80006A01E857320BC0740B6A006A00E8582A0BC07503E9C7000E68AC5EE8023283C4E7
:203FA00004C70686040100837E0400750E1EFF3616036A00E813F90BC074386A0F6AEB8D81
:203FC00046EE16506A11E80DFC0BC07426E8D3C1B9EBFFBA0F002BC883DA005251FF76EA3C
:203FE000FF76E8E8D9C15250E8B8C150E8E7FB0BC0751D837E04007407C746040000EBA745
:20400000E83DD70E68FA5D6A01E8D0310BC075976AFFE801FA0BC074450E68B95CE88031B8
:2040200083C404FF36C402FF36C202FF76EAFF76E8E88BC15250E8D4C150E899FB0BC07427
:204040001D0E682654E8583183C404E8F634FF36C402FF36C202E866C15250E8F0C3C9C2BA
:2040600002009090C82000006800808D46F416508D46E416508D46E81650E8E5330BC074A4
:204080000F8B46E60B46E47407E8AA340BC07403E9D700A14C04D1E88946E02BD23B56E615
:2040A000720D77053B46E476068B46E48946E08D46F416501EFF364A04FF76E0E8CDEE0BEF
:2040C000C0741A8D46E81650A14C04D1E803064A041E50FF76E0E8B3EE0BC07503E98A006E
:2040E000C746E20000837EE00074748B5EE2031E4A048A078B1E4C04D1EB035EE2031E4ADA
:204100000438077437E82E340BC075538D46E816508B1E4C04D1EB035EE2031E4A042AE43E
:204120008A07508B5EE2031E4A048A07508D46F416500E689A5AE8673083C4108346F80154
:204140008356FA008346EC018356EE00836EE401835EE6008B46E0FF46E23946E2728C8BB0
:2041600046E60B46E47403E91FFFC9C39090C80C0000C746FC8000C746FE00006A00E8BF3B
:20418000300BC0751F6800A01E681A038D46FC1650E846310BC07503E938016A01E8A030C9
:2041A0000BC0740F8B46FE0B46FC7407E887330BC07403E91D01A01E03250F008946F82D46
:2041C0001000F7D88946F62BD23B56FE720D77053B46FC76068B46FC8946F61E681A038BFB
:2041E00046F803064A041E50FF76F6E89EED0BC07503E9DE008B46F82BD229061E0319168F
:2042000020031E681A030E68895DE8932F83C4088B46F60346F82BD201061E03111620030C
:204220008B46F62946FC1956FE8956FA8B46FA3946F8774A8B46F60346F83B46FA763F8B40
:204240005EFA031E4A048A078846F42AE4500E68B35CE84B2F83C406807EF4207214807E1C
:20426000F47F730E8A46F48B5EFA031E4A048807EB208B5EFA031E4A04C6072EEB140E68D8
:204280000E5AE81B2F83C4048B5EFA031E4A04C607208A46FA24073C07750A0E68915AE8FA
:2042A000FE2E83C404FF46FA837EFA107303E97BFF8B1E4A04C64710001EFF364A040E6839
:2042C000465BE8DB2E83C4088B46FE0B46FC7403E9D9FEC9C3909090C81000006800808D21
:2042E00046F01650E8DD2F0BC0740E8D46FE16506A01E801300BC07503E9A100837EFE005A
:2043000074128D46F016501EFF364604FF76FEE8A6ECC9C38D46F016508D46FC16506A010F
:20432000E869EC0BC074768A46FC2AE4508D46F016500E681F5CE8672E83C40A0E687A5732
:204340006A01E8AD2E0BC074548B1E4604803F2E744B8D46FE16506A01E89A2F0BC0742A41
:204360008D46F016501EFF364604FF76FEE848EC0BC07429837EFE007505C746FE01008B70
:2043800046FE2BD20146F41156F68D46F016508D46FC16506A01E8F3EB0BC0758AC9C390CF
:2043A000C8120000C706860401006800808D46F416508D46F016508D46EE1650E8E1300B62
:2043C000C074798B46EE03C03B06480473228B46EE030646041E501EFF364604FF76EEE824
:2043E0001232D166EE8B46EE03C03B06480472DE8B46F20B46F074448B46EE2BD23B56F2FA
:20440000720D77053B46F076068B46F08946EE8D46F416501EFF364604FF76EEE899EB0B92
:20442000C074198B46EE2BD20146F81156FA2946F01956F28B46F20B46F075BCC9C3909032
:20444000C8200000C706860401006800808D46F416508D46E416508D46E81650E803300BA3
:20446000C07503E9C0008B46F88B56FA3956EE720C77053946EC7605B80100EB0233C08938
:2044800046E20BC074128B46E48B56E60146F81156FA0146EC1156EE8B46E60B46E475039B
:2044A000E98300A14C048946E02BD23B56E6720D77053B46E476068B46E48946E03956E2CB
:2044C000740F8B46E02946F81956FA2946EC1956EE8D46F416501EFF364A04FF76E0E8AB6A
:2044E000EA0BC074418D46E816501EFF364A04FF76E0E8C3EA0BC0742D837EE20075118B46
:2045000046E02BD20146F81156FA0146EC1156EE8B46E02BD22946E41956E68B46E60B46F2
:20452000E47403E97DFFC9C3C81600006800808D46F416508D46F016508D46EE1650E85FA5
:204540002F0BC0740A8B46EE2BD23B56F27603E9C80072053B46F0771BFF4EEE8B46EE29DD
:2045600046F01956F28B46F20B46F07407E8C62F0BC07403E9A3008946ECA14C042B46EE6F
:204580008946EA2BD23B56F2720D77053B46F076068B46F08946EA8D46F416501EFF364AB6
:2045A000048B46EA0346EE50E8E1E90BC0746B837EEA0074258B46EC03064A041E501EFF36
:2045C0003646048B46EE4050E801300BC0740B8B46EAFF46EC3946EC72DB8B46EC2BD2014A
:2045E00046F81156FA2946F01956F23946EA761F8D46F416500E680A5DE8A42B83C40883CB
:2046000046F8018356FA00836EF001835EF2008B46F20B46F07403E953FFC9C39090558B91
:20462000EC8B5E0403DB2E8B873E4603067C048B167E042DE001C9C2020008000D00F201B0
:20464000EC01F001EE01FC01E801E601E401E201E001FE01F601F4010B000A000900070007
:2046600006000400020000004E564F565550444E44494549504C4E474E5A5A524E414143FB
:20468000504F50454E434359004158425843584458535042505349444944534553535343D9
:2046A00053495000202563256300256325633D253034582563200090558BEC8A46049850F0
:2046C000FF7606E858FF8EC28BD826FF378B5E0603DB2E8A878A4698502E8A878946985057
:2046E0000E68AA46E8B92AC9C2040090C80A00002E833E3A46007458C746FA5846C746F8B3
:2047000000002EA13A468946F68B46F88946FC8B5EFAB801002E8A0FD3E0C41E7C042685CE
:20472000471874048346FC028B5EFC2E8A87694698502E8A87684698500E68A446E8602A79
:2047400083C4088346FA028346F804FF4EF675B9C9C3C8020000C746FE00002E833E3C463D
:2047600000741DFF76FE6A20E84DFF837EFE077503E8842C2EA13C46FF46FE3946FE72E3FB
:20478000E869FFE8722CC9C3C84A00008D46BC8946B88C56BAC746FE00002E833E3C460077
:2047A0007448C746B689468B5EB62E8A07C45EB8FF46B82688078B5EB62E8A4701C45EB848
:2047C000FF46B8268807C45EB8FF46B826C6072CC45EB8FF46B826C607208346B6022EA1F7
:2047E0003C46FF46FE3946FE72BDC45EB826C647FE00837E0400740A8D46BC1650E8182A9B
:20480000EB0C8D46BC16500E68F95BE89229C9C20200C84A00008D46BC8946B88C56BAC727
:2048200046FE00002E833E3A46007472C746B668468B5EB62E8A07C45EB8FF46B826880784
:204840008B5EB62E8A4701C45EB8FF46B8268807C45EB8FF46B826C6072F8B5EB62E8A4796
:2048600002C45EB8FF46B82688078B5EB62E8A4703C45EB8FF46B8268807C45EB8FF46B8A6
:2048800026C6072CC45EB8FF46B826C607208346B6042EA13A46FF46FE3946FE7293C45E56
:2048A000B826C647FE00837E0400740A8D46BC1650E86429EB0C8D46BC16500E684A5BE833
:2048C000DE28C9C20200C806000056C746FE00006A00E87B2A50E8B52A8846FC6A00E86F7D
:2048E0002A50E8A92A8846FA0AC07505B8FFFFEB37C45E0426803F0074298A46FC8B5E043E
:204900008B76FE263800750B8A46FA03DE2638470174108346FE028B5EFE8B760426803852
:204920000075D78B46FED1E85EC9C2040090C8080000837E040075096A00E803290BC07416
:2049400003E900016A036A66E8DF280BC07403E981000E688946E86DFF8946FE2EA13C46DB
:204960003946FE72170E685D5CE8AC28E8D1CD6A00E814FE6A00E899FEE9CB006A00E8BFAE
:20498000280BC0741AFF76FE6A3AE82BFD0E687A576A01E85C286A00E8A5280BC0751A6A6E
:2049A00007E864288D46FC1650E8E2280BC074096A01E88B280BC07503E98B00FF76FEE8F5
:2049C0005CFC8946F88956FA8B46FCC45EF8268907EB746A00E868280BC07415E80DFD0EAD
:2049E0006808596A01E80A286A00E853280BC075560E686846E8CEFE8946FE2EA13A46030F
:204A0000C03B46FE77056A01E96BFF6A01E830280BC074338B5EFE80E3FE2E8A8F5846B81B
:204A20000100D3E08946FCF7D0C41E7C0426214718F646FC0175108B46FCC41E7C0426090C
:204A40004718EB03E80BFDC9C20200909090C8040000A166048946FE0E688946E867FE891D
:204A600046FC2EA13C463946FC720A8B46FEA3660433C0EB1CFF76FCE8A3FB8BD88EC22606
:204A80008B07C45E0426890726C747020000B80400C9C2040090C8080000C746FE02000EAC
:204AA000688B5C8B5E04FF46048A0750E8FD288946FA3DFFFF7405B80100EB0233C050E835
:204AC000542983C4060BC074138B46FCC1E0040346FA8946FCFF4EFE75C5EB0433C0EB0BDD
:204AE0008B5E068A46FC8807B80100C9C20400414D44204C50442000EB164538364D6F6E54
:204B0000204C696220457874656E73696F6E2031C8080000C646FE00837E0400750D0E6859
:204B20007A576A00E8CB260BC07448A146048946FC8946FAC7460400008BD8803F0074D8DC
:204B4000FF067004F6067004077514A17004C1E80350E86D260E68CF57E8442683C4040E09
:204B600068DD5C8B5EFAFF46FA803F3A7509B80100EB0633C0EB6E33C050E8992883C406CC
:204B80000BC0745E8B5EFA803F007422FF76FC53E803FF0BC0744B8B5EFC8A070046FEFF4F
:204BA00046FC8346FA028B5EFA803F0075DE0E68B05A8B1E46042AE48A072B46FC03D8831C
:204BC000FBFB7505B80100EB0233C050E8472883C4060E68905D807EFE011BC0F7D850E896
:204BE0003428B80100C9C2020090558BEC8B5E042AC08A278A4F012AED03C1C9C20200905D
:204C0000558BEC56FF7604E8E0FF8BC88B46044040508BF1E8D3FF8BD65EC9C20200558BD8
:204C2000EC8B46048B5606B10CE8D02303460813560AC9C20800C80E00005756C746F40059
:204C4000008B460C8B560E8946F88956FAC746F601008B46060B4604745EC746F2008083E4
:204C60007E0600750D817E04008073068B46048946F28D46F41650FF760AFF7608FF76F20C
:204C8000E835E38B46F22BD20146F81156FAFF760AFF76088BF08BFAE80DB503C613D75209
:204CA00050E81BB589460889560A297604197E068B46060B460475A25E5FC9C20C00C81E6F
:204CC000000056C45E06268B47168946F60E68D85EA152043946F67705B80100EB0233C056
:204CE00050E8322783C4060BC0750533C0E9A701C45E06268B471C268B571E8946F289560B
:204D0000F4268B4718268B571A8946EE8956F0837E040074526A00E8F01DFF76F0FF76EEEF
:204D20006A05E8BB2383C406A14E048B16500480C4015250E871B48946EA8956EC5250FFF0
:204D400076F0FF76EEE877B452508B46F28B56F42B46EE1B56F05250E8DBFE8B46EA8B567E
:204D6000EC8946EE8956F08B46F28B56F4C45E06263957227256770626394720764E5250B2
:204D8000E83CB48BD88EC2268B07268B57020346EE1356F05250E826B48EC28BD88B46EE60
:204DA0008B56F0B1048BF3E828232601048346F2048356F4008B46F28B56F4C45E062639E6
:204DC000572277BA72062639472077B2268B4728268B572A8946F88956FA3DFFFF75073BDE
:204DE000D07503E905FF268B472C268B572E8946FC8956FE3DFFFF75043BD074728BC20B7F
:204E000046FC741552FF76FCFF76F0FF76EEE80DFE8946FC8956FEEB24A152048946F68B4B
:204E20000E4E048B165004894EFC8956FE3D0010730BC1E0042BD20146FC1156FE8B46FE89
:204E4000C41E7C042689471E8B46FCC41E7C042689471CA15004C41E7C0426894702C41E6A
:204E60007C04268B4702268907FF76F6E89D24FF76FAFF76F8FF76F0FF76EEE8A0FD8946F6
:204E8000F8C41E7C04268957168B46F8C41E7C0426894714B801005EC9C20600C8020000F5
:204EA000C45E0426837F0A1C7526268B472A260B4728751C268B470840401E500E68EF4AF3
:204EC0006A08E807270BC07507C746FE0100EB05C746FE00000E68CD5BFF76FEE837258324
:204EE000C4060BC07503E92501A14E048B16500480C4015250E8B0B2C45E04268947282613
:204F000089572A26837F0E00743C6A00E8B31C05400083D200C45E04268947282689572A72
:204F20000E68CA59E86FE3C45E042639572A720D7706263947287205B80100EB0233C0506E
:204F4000E8D32483C406C45E04268B4728268B572A26010726115702268B4708050A005090
:204F6000E887FC051000C45E0426894726268B4708050C0050E888FCC45E042689473C2624
:204F800089573E268B470805100050E872FCC45E04260347282613572A2689472C26895798
:204FA0002E268B470805140050E854FCC45E04260347282613572A26894730268957322626
:204FC0008B470805180050E836FCC45E04260347282613572A26894734268957360E68CD4F
:204FE0005B268A4728260A472C260A4730260A4734240F3C011BC0F7D850E8192483C40666
:205000000BC0750AC45E0426894702268907C9C20400C8060000C45E0426FF7708E8CAFB9E
:205020002BD2B104E8D51FC45E0426890726895702268B4728268B572A26010726115702EE
:205040000E68CD5B268B4706260B47047505B80100EB0233C050E8BD2383C4060BC0740F72
:20506000C45E0426837F0A0274050653E82DFEE824E2C45E0426395702720C7705263907C5
:205080007205B80100EB0233C08946FE26837F2A00750726837F28007405B80100EB0233C3
:2050A000C08946FC837EFE00743926837F0C007532B801002689470C50E84E1A8B46FCC4F2
:2050C0005E042689470E0BC074196A00E8F31A52508B46048B560605100052506A006A408A
:2050E000E853FBC45E0426837F0C00750E26837F0E007407C746FA0000EB05C746FA0100ED
:205100000E68335DFF76FAE80C23C9C20400C80A0000C45E0426FF7708E8E4FAC45E0426C6
:205120008947382689573A26837F0E00755DC45E0426837F0C007453E863E12D100083DA38
:20514000005250E879B08946FC8956FEC45EFC268B4702262347042623073DFFFF752CC656
:2051600046F6EAC45E04268B4738268B573A8946F78956F9E827E12D100083DA0052508D1A
:2051800046F616506A006A05E8ABFAC9C2040090C85600005733C08946FE8946FCB9280007
:2051A0008D7EAC1607F3ABB8FFFF998946E48956E68946E88956EA8B46060B46047421C7AE
:2051C00046BA01008D46BC16500E68FA4A6A16E822248D46EC1650FF7606FF7604E8C0238D
:2051E0000E681963E8B91F83C404C706800401006A01E81BF98B1E46042AE48A078946B6E2
:205200008D470150E8E3F98946B0C746B20000A146040504008946B48B1E46042AE48A471E
:20522000030BC0742E48744748746D487474837EFE007403E99E000E682162E8621F83C4FC
:20524000040E68FD5AE8BE2183C404C746FE0100E982008B46B08B56B20346AC1356AE5282
:20526000501EFF76B46A00FF76B6E8C9F9EB66837EB600750F8B46B20B46B07507C746FCC3
:205280000100EB05C746FC00000E683E5CFF76FCE8832183C406EB3D8D46AC1650E872FD56
:2052A000EB33837EB604750F8B46B20B46B07507C746AA0100EB05C746AA00000E68685BF9
:2052C000FF76AAE8502183C4060BC074088D46AC1650E839FE837EFC00750C6A00E830F8C6
:2052E0000BC07403E90EFFE80E210E681A5EFF76FCE8222183C4060BC07425837EB80074F7
:2053000005B87F64EB03B8EF5F0E500E68465BE88E1E83C4088D46BC1650FF76BAE89EF9FE
:205320005FC9C2040090C80A0000C746FA0000837E04007D1233C089460450E8021F0BC098
:205340007453C746FA01002BC08946F88946F6FF76F8FF76F66A01E8F8178946F68956F831
:205360008BC20B46F6745652FF76F6E851AE8946FC8956FE837EFA007438053000525052B3
:20538000FF76FCFF4604FF76041E68F600E8101E83C40EEBBA8D46F61650E8151F0BC074C4
:2053A0002C6A01E89A1E0BC074238B46F6894604EB95FF4E04837E04007F94EB14837EFAD7
:2053C00000750A0E68405AE83C2083C40433C0EB0752506A01E8E6F8C9C202004368616EF0
:2053E000676520796F7572207465726D696E616C20746F20646573697265642062617564B7
:20540000726174652C207468656E207072657373202761272E0A0D0D0D00656E64206F663E
:20542000206C696E65000A5265626F6F74696E672E2E2E20287072657373202741272074AF
:205440006F206175746F6261756420616761696E290A00466C617368206572726F723A2083
:205460004279746520616C72656164792070726F6772616D6D65642028657261736520666A
:205480006972737429000A426F6F7420736563746F72733A2020000A0A467265652064616B
:2054A000746120706172616772617068733A20253034780A43757272656E74207379737493
:2054C000656D2074696D653A2020256C752E253033750A005E20202D2D204572726F723A1A
:2054E0002065787065637465642025732E0A00596F752063616E206D616B6520796F75720E
:205500002073797374656D20756E626F6F7461626C6520696620796F750A2070726F6772BB
:20552000616D20696E76616C69642076616C75657320696E746F2074686520666C6173687D
:205540002E0A0A576F756C6420796F75206C696B6520746F20746573742062792072656285
:205560006F6F74696E6720776974680A20746869732076616C7565206265666F7265207974
:205580006F75206D616B65206974207065726D616E656E743F00466C617368206572726F7D
:2055A000723A2050726F6772616D206F7065726174696F6E206661696C6564000A466C61B4
:2055C0007368206465766963653A20202573202D2D2025754B206279746573206F726761BF
:2055E0006E697A65642061732025754B20582025750A41707020736563746F72733A20209E
:2056000020000A2020252D3135732530345820202020253034582020202020202020202073
:20562000253034582020202025303458002573202028592F4E293A20200054686973207681
:2056400061726961626C652063616E6E6F74206265206368616E676564206F6E20746869A4
:20566000732073797374656D2E0A000A2020204D6F64756C652020436F6465205365676D83
:20568000656E742F4C656E67746820202044617461205365676D656E742F4C656E677468D4
:2056A000003239463830305400466C617368206572726F723A204572617365206F706572F5
:2056C0006174696F6E206661696C65640020202020252D3135733D202530346C780A005358
:2056E000797374656D206572726F723A2043616E6E6F74206D6F6469667920666C6173689B
:205700002077697468696E207365636F6E64206D6F6E69746F720A202020202020202020E8
:2057200020202020696E766F636174696F6E20284720464646463020746F20726573746176
:205740007274206D6F6E69746F7229003239463830304200636F6D6D616E64202D2D20749A
:2057600079706520273F2720666F722068656C700032394C56343030540000202020202564
:205780002D3135733D202530386C780A00466C617368206572726F723A20556E6578706524
:2057A000637465642053656E74696E656C000A53746F7070656420617420627265616B7074
:2057C0006F696E740A0032394C5634303042002E000A427265616B73206E657374656420CF
:2057E000746F6F20646565706C79202D2D2072657475726E696E6720746F207072657669F3
:205800006F7573206C6576656C0A00323946343030540020202020252D3135733D20256CBD
:20582000750A00466C617368206572726F723A2043616E6E6F74206964656E746966792058
:205840006465766963650032394634303042000A45383620426F6F74204D6F6E69746F72D8
:20586000202D2D2056657273696F6E20332E343220313939392F322F32350A202020202024
:2058800020202020202020202020202020202020202020436F70797269676874202843293B
:2058A00020313939342D3139393920414D442C2041757374696E2C2054657861732C205544
:2058C00053410A0A48656C70206E6F7420617661696C61626C65202D2D20757365204C4CC6
:2058E00020636F6D6D616E6420746F206C6F616420657874656E73696F6E207769746820ED
:2059000068656C702E0A0A003A2020003239463230305400466C617368206572726F723A19
:205920002043616E6E6F74206D6F6469667920666C617368207768696C652065786563759B
:2059400074696E672066726F6D2069740A000A4D656D6F727920726567696F6E206F75741B
:20596000206F662072616E67653A20256C612025780032394632303042002C20003239467A
:20598000313030540061707020626F6F7420766563746F72206D75737420706F696E742007
:2059A000746F206E6577206D6F6E69746F7200256C582F256C583D256C582C20256C5825F1
:2059C00025256C583D256C580A0046696C65206572726F723A20466C617368206E6F7420E6
:2059E000666F726D617474656420636F72726563746C79202875736520584120746F206514
:205A000072617365290032394631303042002020200032394630313600256C582B256C5889
:205A20003D256C582C20256C582D256C583D256C582C20256C582A256C583D256C580A0057
:205A400046696C65206572726F723A2050726F6772616D206E6F7420666F756E6420696EA6
:205A600020666C617368002020006D757374207570646174652066726F6D20617070206691
:205A80006C61736820617265610032394630383000200032394630343000256C41202025C0
:205AA0003032582020253032582020256C410A0046696C65206572726F723A205265636F44
:205AC0007264204C656E67746820496E636F7272656374006E6577206D6F6E69746F722013
:205AE000746F6F206C61726765003239463031300025630A00556E6B6E6F776E0046696C4A
:205B000065206572726F723A20556E6B6E6F776E207265636F7264207479706500202025A6
:205B20003034780A006E657720686172647761726520696E697420636F646520746F6F20A6
:205B40006C617267650025730A0056616C696420666C61672073657474696E67732061726A
:205B6000653A2025732E0A0046696C65206572726F723A20496E76616C69642073746172D1
:205B800074206C6F636174696F6E207265636F7264002020253032780A002025325820231E
:205BA000230A00466C617368206572726F723A2043616E6E6F7420757064617465206D6F24
:205BC0006E69746F72202D2D2025730A0046696C65206572726F723A20496E76616C696472
:205BE000205365676D656E74206F72207374617274207265636F72640056616C6964207242
:205C000065676973746572206E616D6573206172653A2025732E0A004538364D4F4E002519
:205C20006C612020253032782020000A4D6F6E69746F722075706461746564210A00466945
:205C40006C65206572726F723A20496E76616C696420454F46207265636F72640072656731
:205C60006973746572206E616D65206F722027662720666F6C6C6F77656420627920666CFE
:205C800061672073657474696E670046696C65206572726F723A204E6F6E2D6865782063DA
:205CA000686172616374657220696E207265636F7264002530327820004E6F7720636F704F
:205CC00079696E67206D6F6E69746F7220746F20626F6F7420617265612E2E2E0046696CB0
:205CE00065206572726F723A205265636F726420646F6573206E6F7420737461727420771B
:205D000069746820636F6C6F6E00256C610A000A2020202872657475726E696E672066729F
:205D20006F6D206D6F6E69746F7220425245414B290A0046696C65206572726F723A20275C
:205D4000772720636F6D6D616E642072657175697265732072656C6F63617461626C652058
:205D600066696C65000A436F6E74696E75696E6720626F6F74206D6F6E69746F722075705A
:205D8000646174652E2E2E0A00256C612020200046696C65206572726F723A20496E7661CD
:205DA0006C696420636865636B73756D005065726D206572726F723A20546865206465668F
:205DC00061756C742076616C7565206F6620272573272063616E6E6F7420626520757064E2
:205DE000617465642E0A006E756D626572206F72207265676973746572000A417474656DB9
:205E00007074205265747279206F6E20426F6F7420696E7374616C6C3F0046696C6520655C
:205E200072726F723A20557365722061626F7274656420646F776E6C6F616400706C757367
:205E4000206F72206D696E7573000A4E6F2070726F6772616D206C6F616465640A0A005029
:205E600065726D206572726F723A205468652063757272656E742076616C7565206F6620A4
:205E8000272573270A20202020202020646F6573206E6F74206D61746368206974732062F7
:205EA0006F6F742076616C75652E0A005265706C6163696E6720426F6F7420426C6F636BC7
:205EC000206E6F772028444F204E4F54204449535455524221290A0046696C6520657272E8
:205EE0006F723A202E4558452066696C6520646F6573206E6F742066697420696E206D650F
:205F00006D6F7279006C697374206F6620627974657320616E642F6F722071756F746564AD
:205F200020737472696E67000A4E6F7465202D2D2074686520666C617368206F70657261CA
:205F400074696F6E207573656420286F76657277726F746529207468652052414D2E0A0AB5
:205F6000005065726D206572726F723A20596F75206D7573742062652072756E6E696E67BB
:205F80002066726F6D2074686520626F6F74206D6F6E69746F720A20202020202020746F03
:205FA00020757064617465207065726D616E656E74207661726961626C65732E0A0073656B
:205FC000636F6E642061646472657373203E2066697273742C20616E6420696E2073616D9A
:205FE00065206D656D6F72792073706163650046696C6520646F776E6C6F616420737563F4
:206000006365737366756C00546865206D6F6E69746F722069732072756E6E696E6720669F
:20602000726F6D20616E20382D62697420666C6173682E0A446F20796F752077616E7420CF
:20604000746F207265706C61636520612031362D62697420646576696365000A50726F67BB
:2060600072616D207465726D696E61746564207769746820726573756C7420636F6465201D
:20608000253032580A0A003C616464726573733E206F72204C203C6C656E6774683E0050D4
:2060A00065726D206572726F723A2027257327206973206E6F7420612076616C6964207064
:2060C00065726D616E656E74207661726961626C650A002061742066696C65206C696E6579
:2060E000206E756D6265722025752E000A4538364D4F4E20686173206265656E2072656CEF
:206100006F636174656420746F2052414D2E0A0A546F207265737572726563742061206601
:206120006C6173682C2073776974636820746F207468650A2062616420666C617368206175
:206140006E64207072657373202759270A0A49662074686973206973206E6F7420776861F1
:206160007420796F752077616E7420746F20646F2C0A707265737320274E27206F722072AC
:2061800065736574207468652064656D6F20626F6172642E2E2E0061646472657373202848
:2061A0007365673A6F6666736574206F722035206865782064696769747329000A0A576587
:2061C0006C636F6D6520746F20414D44277320454D6F6E2031383621202020202020283F8A
:2061E000203C456E7465723E20666F722068656C70290A0A000A5065726D616E656E7420C6
:206200007661726961626C65207375636365737366756C6C7920757064617465642E0A0AAA
:20622000000A4572726F7220656E636F756E74657265642120205072657373206573636164
:20624000706520746F20636F6E74696E75652E0A0041726520796F7520737572653F2020B6
:20626000287265706C61636520626F6F74206D6F6E69746F72290044574F52442028312DCF
:2062800038206865782064696769747329000A0A425245414B207265636569766564206F25
:2062A0006E2073657269616C20706F7274202D2D206D6F6E69746F7220656E746572656442
:2062C0002E0A2020202028547970652047203C656E7465723E20746F20636F6E74696E75FA
:2062E0006520776974682070726F6772616D290A004F7574206F6620726F6F6D20696E20F1
:206300007065726D616E656E74207661726961626C6520617265610A005472616E736665B7
:206320007272696E67206865782066696C65202850726573732045736320746F2061626F31
:206340007274292E2E2E00574F52442028312D3420686578206469676974732900202050CC
:20636000726F7465637465642120286E6F7420657261736564206279205841290A000A4D37
:20638000616B6520746865207065726D616E656E742076616C7565206F6620272573272029
:2063A0003D202530386C783F00556E68616E646C656420696E746572727570742023255870
:2063C000680A0042595445202831206F7220322068657820646967697473290042656769A2
:2063E0006E206865782066696C65207472616E7366657220287573696E6720584F4E2F587B
:206400004F464629206E6F772E2E2E0A0045726173696E6720666C61736820736563746F3B
:206420007220617420256C582E2E2E000A4D616B6520746865207065726D616E656E74206F
:2064400076616C7565206F662027257327203D202530346C783F0042726F6B6520617420F3
:20646000656D62656464656420696E7420330A00646563696D616C206E756D62657200446E
:2064800065766963652070726F6772616D6D6564207375636365737366756C6C7900466CAB
:2064A000617368206572726F723A2043616E6E6F742065726173652074686520617265614F
:2064C00020796F75206172652072756E6E696E672066726F6D2100415343494920737472EF
:2064E000696E67000A4D616B6520746865207065726D616E656E742076616C7565206F6659
:206500002027257327203D20256C753F004D6F6E69746F72206C6F636B656420696E746F5F
:206520002052414D0A00466C617368206572726F723A20496E76616C696420736563746FBA
:2065400072206E756D62657200256420617420255800C808000056C45E04268B7702268BDE
:2065600004268B54028946FC8956FE268B4704268B57063DFFFF75043BD074068946FC89D1
:2065800056FE8B46FC8B56FE5EC9C2040090C818000056E808CDB104E8370B8946FC8BD086
:2065A0002BC9894EF88946FA8BD98EC026034F0C13D3894EF48956F6E8479CC746F00000CB
:2065C0008946F28B4604C1E00305641A8946EC8C4EEE0E50E87BFF8946E88956EAC45EF029
:2065E00026817F0C641A7403E994008B46FA3946F2745850FF76F806536A0CE8CE0F0BC0D3
:20660000757D894604C45EF426833F007508837E0400741FEB698B46FC8BD02BC926030FFA
:2066200083D2005251C45EEC0E26FF37E8490F0BC07409FF46048346F408EBC9FF76F6FF36
:2066400076F4E80DFF8946E88956EAC746FE00FFA10A01836EFE053946FE76238B5EFEC4F1
:20666000360E01268A002AE43B460475E303DE268B4701268B57038946E88956EAEBD18B8E
:2066800046E88B56EA5EC9C20200909056B8FBFEA30A01A30C01C41E0E012680BFFBFEFF43
:2066A0007415A10A01832E0A0105A30C018B360A01268038FF75EBFF0E0C018B1E0C018BD0
:2066C000360E01268038FF74EE83060C0140C706080101002E833E6C1A00742FFF36080133
:2066E000E8ABFE8B1E0801C1E3032E8B9F661A2E8B5F048907895702FF0608018B1E08018A
:20670000C1E3032E83BF641A0075D15EC390C8040000568B5E04C1E30381C3641A895EFC92
:206720008C4EFE2E8B5F022E8B5F042AE48A470448740848741F487436EB52C45EFC268BCB
:2067400077022E8B7404FF7402FF340E26FF370E681358EB32C45EFC268B77022E8B740406
:20676000FF7402FF340E26FF370E687B57EB18C45EFC268B77022E8B7404FF7402FF340E8D
:2067800026FF370E68CD56E8160A83C40C5EC9C20200C80200008B5E08C1E3032E8B9F669E
:2067A0001A2E8B5F042AE48A470448740C48741B487423C6470500EB30FF7606FF7604E839
:2067C000F00A0BC07423B80100EB20FF7606FF7604E8CC0AEBECC45E042BC02689470226E1
:2067E00089070653E8A70AEBD933C0C9C2060090C8040000C746FE0100C746FC6C1AEB18D5
:206800000E2EFF37FF7606FF7604E86B0D0BC074148346FC08FF46FE8B5EFC2E833F007505
:20682000DF33C0EB038B46FEC9C20400C824000057566A00E8090A0BC07423C746E60100E6
:20684000833E0801017703E99901FF76E6E8BEFEA10801FF46E63946E672EFE98501E83D42
:20686000CAB104E86C088BF08BFAE82B092BD23BF075043BFA74070E68615FE901018D46DC
:20688000EC16506A14E8C8090BC07503E954018D46EC1650E859FF8946E60BC075128D46AF
:2068A000EC16500E689F60E85C0B83C408E933016A00E88B090BC07409FF76E6E84FFEE9AF
:2068C0002101FF76E68D46E81650E8C5FE0BC074096A01E86A090BC07503E906018B5EE65F
:2068E000C1E30381C3661A895EDC8C4EDE2E8B1F2E8B5F04807F050075060E683A56EB7FCF
:20690000FF76E6E808FE0E68EF546A01E8CD080BC074258B5EDC2E8B1F8B46E82E8B5F0477
:206920008B56EA89078957020E682654E8710883C404680001E802C7FF76EAFF76E88D46D5
:20694000EC16500E68E464E8560883C40C0E687A576A00E886080BC07503E986008B5EDCF0
:206960002E8B1F8B46E82E8B5F048B56EA8907895702A10A0139060C0176090E68F162E805
:20698000840AEB5CFF76E6E804FC8B5EDC2E8B1F2E8B5F043907750539570274466A01E8CD
:2069A00068018A46E68846E08B46E88B56EA8946E18956E3A10E018B16100103060A01524C
:2069C00050E8E49752508D46E016506A05E806D20BC0740F832E0A01050E68F561E8C00790
:2069E00083C4045E5FC9C390C80E000056C746FE0100C746FA6C1A8C4EFC833E0801017796
:206A000003E9DB00FF76FEE884FBC45EFA268B5F022E8B5F0439077403E9AC003957027439
:206A200003E9A40006FF76FAE827FBC45EFA268B5F022E8B5F043907750539570274758345
:206A40007E06007421837E040075698B5EFA26837F04FF750726837F06FF74580E26FF374D
:206A60000E68AD5DEB6D837E0400741A8B5EFA268B77022E8B74048B048B54022689470403
:206A800026895706EB2EE879978BD02BC98B5EFA83C30403CB83D2005251E80B975250C4A7
:206AA0005EFA268B5F021E2EFF77046A04E826D10BC074278346FA08A10801FF46FE3946BC
:206AC000FE7303E93EFFEB178B5EFA0E26FF370E685F5EE8300983C408EB0733C0EB03B89F
:206AE00001005EC9C2040090E8E8960BC07417A154048B16560439069804750A39169A0421
:206B00007504B80100C333C0C390558BEC837E04007414833E840401760D0E68DF56E8E59C
:206B2000088BE533C0EB26FF7604E8D897837E04007409A198048B169A04EB07A194048B55
:206B4000169604A3540489165604E89BFFC9C2020090C8040000E83DC78946FC8956FE8B07
:206B600046080B4606741BFF7608FF7606E84F968BD88EC2268B4724268B57268946FC89CB
:206B800056FE837E0400743052FF76FCE8309652500E68FA4A6A16E8320A0BC075128B4664
:206BA000068B56083956FE770F72053946FC77082BC08946FE8946FC8B46FC8B56FEC9C2A8
:206BC0000600C8040000837E04007509A132010B063001753C2BC08946FE8946FCFF76FEA3
:206BE000FF76FC6A00E86AFFA3300189163201FF76FEFF76FC6A01E858FF8946FC8956FE8D
:206C0000A130018B1632013946FC75053956FE74CCA130018B163201C9C20200C810000001
:206C200056C746FA00406A01E897FF05FF3F83D2002500C083E20F8946FC8956FEEB0B8BB4
:206C400046FA2BD20146FC1156FEE851C63B56FE724777053B46FC7640837EFC011BC0255B
:206C6000003880C4088946FAFF76FEFF76FCE84E958946F68956F852500E68F84A6A18E8B8
:206C80004A090BC075B91E1E684004FF5EF683C4041FC746FA0008EBA6A154048B1656046F
:206CA000A3940489169604813E74040003753CC746F40000EB28C1E003268B5F1C03D88C2A
:206CC00046F2268B47028BC82BF68EC026803E0000FF75078E46F226897702FF46F48B4669
:206CE000F4C41E9E042639471E77CB5EC9C3558BEC56C45E06268B072D15003D3300777091
:206D000003C0932EFFA7086D766D8B6D9B6DA86D706D706D706D706D706D706D706D706DF4
:206D2000706D706D706D706D706D706D706DB06DC56D706D706D706D706D706D706D706DEE
:206D4000706DDA6DED6D706D706D706D706D706D706D706D706DFE6D0D6E1F6E2C6E416E11
:206D6000566E676E776E876E986EAD6ECA6EDF6EB8FFFFE97701E889948BF0E81A043BF032
:206D80007403E98300B801005EC9CB8B5E0626FF770426FF7702E8C9BEEB6D8B5E06268AD2
:206DA000470250E86EBFEB60E8C1BF2AE4E93D018B5E0626FF770426FF770226FF7706E886
:206DC000D8AAE928018B5E0626FF770426FF770226FF7706E823AAE9130168D4748B5E06FF
:206DE00026FF770426FF7702E83FA6EB1B8B5E0626FF770426FF7702E817A9E9EF008B5EEC
:206E00000626FF7702E8C49E33C0E9E0008B5E0626FF7702268A470450E8EC9EE9CE008B3C
:206E20005E0626FF7702E8019FE9C1008B5E0626FF770426FF770226FF7706E81C9FE9AC17
:206E4000008B5E0626FF770426FF770226FF7706E8679FE997008B5E0626FF770426FF77CA
:206E600002E872A0E986008B5E0626FF770426FF7702E893A0EB768B5E0626FF770426FF4A
:206E80007702E8B5A0EB668B5E0626FF770426FF7702E8DDA05EC9CB8B5E0626FF770226B4
:206EA000FF770626FF7704E800A15EC9CB8B5E0626FF770226FF770626FF770426FF770AC6
:206EC00026FF7708E859A25EC9CB8B5E0626FF770426FF770226FF7706E80EA35EC9CB8B54
:206EE0005E0626FF770426FF7702E877A85EC9CBE8A502C7068A041976A38C04B81A01A3D5
:206F000054048C1E5604A398048C1E9A04A394048C1E96042BC9890E1C01890E1A01C706E8
:206F20002601FFFFE8D892A32E01E8EA92A32C01E8DA92A32801E8C992A32A01C390C70683
:206F40009E0440048C1EA004C70640044E00C70642044203C70648045400C7064C0480003C
:206F6000C7065E040800C7064604A603C7064A042603C7065C04FA03E88492B96400890EFA
:206F80006004A36204C3558BEC1E53C55E04FF760AFF7608FF7702FF37E82E00890789572D
:206FA000025B1F5DC2080000558BEC1E53C55E04FF760AFF7608FF7702FF37E84A0089570E
:206FC0000289075B1F5DC2080000558BEC8B46068B4E0A0BC88B4E0875098B4604F7E15DBC
:206FE000C2080053F7E18BD88B4604F7660A03D88B4604F7E103D35B5DC2080032EDE30615
:20700000D1E0D1D2E2FAC300558BEC53568B460A0BC075158B4E088B460633D2F7F18BD8D0
:207020008B4604F7F18BD3EB388BC88B5E088B56068B4604D1E9D1DBD1EAD1D80BC975F40B
:20704000F7F38BF0F7660A918B4608F7E603D1720C3B5606770772063B460476014E33D2EF
:20706000965E5B5DC2080000558BEC538B460A0BC075158B4E088B460633D2F7F18B4604D1
:20708000F7F18BC233D2EB458BC88B5E088B56068B4604D1E9D1DBD1EAD1D80BC975F4F788
:2070A000F38BC8F7660A91F7660803D1720C3B56067707720B3B460476062B46081B560A54
:2070C0002B46041B5606F7DAF7D883DA005B5DC2080032EDE306D1EAD1D8E2FAC3000A0030
:2070E000C8100000C41E9E04268B4714268B57168946FC8956FEC746FAFFFF8BC20B46FCC3
:207100007448C45EFC268B4704268B57068946F68956F8C45EF6268B07268B57028946F254
:207120008956F40BD0742EC45EFC268B47148946F01E8E5EF08D46041650FF5EF283C40445
:207140008946FA1F837EFAFF74058B46FAC9C38346F604EBBEC45EFC268B07268B570289A8
:2071600046FC8956FEEB9400558BECCD20454D4F4E44415441A39E048916A004C41E9E0463
:2071800026833F4E750D26817F0242037505B80100C9C333C0C9C300558BEC8CC8C9C300E0
:2071A000558BEC8D460416506A32E833FFC9C300558BECFF7606FF76046A16E822FFC9C2B0
:2071C0000400558BEC2AE48A4604506A17E810FFC9C202006A18E807FF5BC300558BECFF4F
:2071E0007604FF7608FF76066A29E8F3FEC9C2060000558BECFF7604FF7608FF76066A2851
:20720000E8DDFEC9C2060000558BECFF76046A3CE8CDFEC9C2020000558BECFF7606FF7633
:20722000046A48E8BAFEC9C20400558BEC2AE48A460450FF76066A3DE8A5FEC9C20400002F
:20724000558BECFF76046A3EE895FEC9C2020000558BECFF7604FF7608FF76066A3FE87FEC
:20726000FEC9C2060000558BECFF7604FF7608FF76066A40E869FEC9C2060000558BECFFED
:207280007606FF76046A41E856FEC9C20400558BECFF7606FF76046A42E844FEC9C204005E
:2072A000558BECFF7606FF76046A43E832FEC9C20400558BECFF7606FF76046A44E820FE46
:2072C000C9C20400558BECFF7606FF7604FF76086A45E80BFEC9C2060000558BECFF76066A
:2072E000FF7604FF760AFF7608FF760C6A46E8EFFDC9C20A0000558BECFF7604FF7608FFBE
:2073000076066A47E8D9FDC9C2060000558BECFF76046A14E8C9FDC9C20200006A15E8BFCD
:20732000FD5BC300C802000056C41E9E04268B770626037726268A048846FE837E040074A1
:207340000750E82B008846FE8A46FE5EC9C20200C8020000FF7604E8CAFF8846FE0AC07440
:2073600008C41E9E0426FF47268A46FEC9C20200558BEC8066047F807E0441720A807E049E
:207380005A7704804604208A4604C9C20200558BEC8066047F807E0461720A807E047A77C6
:2073A00004806E04208A4604C9C20200558BEC807E04307210807E0439770A8A46042AE438
:2073C0002D3000EB2F807E04617210807E0466770A8A46042AE42D5700EB19807E04417249
:2073E00010807E0446770A8A46042AE42D3700EB03B8FFFFC9C202000E68DE70E8A1FD8370
:20740000C404B80100C3558BEC8D460416506A33E8CDFCC9C300558BEC837E0400750A8D68
:20742000460616506A33E8B7FCC41E9E0426837F2E011BC0F7D8C9C3C80C00006800408D48
:2074400046F41650E87DFE0BC074138B46FC8B56FEC45E0426890726895702B80100C9C203
:207460000400558BECFF7610FF760EFF760CFF760AFF7608E863FE0BC0741EFF7610FF7617
:2074800006FF7604E83DFE0BC0740E6A01E8B0FD0BC07405B80100EB0233C0C9C20E000087
:2074A000558BECFF7610FF760EFF760CFF760AFF7608E825FE0BC07414FF7606FF76046ABF
:2074C00000E832FE0BC07405B80100EB0233C0C9C20E0000558BECC41E9E0426C747320167
:2074E00000807E040A751DC41E9E0426C747320000C41E9E0426F647240175086A0D6A009A
:2075000026FF5F208A46042AE4506A00C41E9E0426FF5F20C9C20200C80200006800016AD9
:2075200000C41E9E0426FF5F208946FE3DFFFF74EB8A46FEC9C36800046A00C41E9E0426E2
:20754000FF5F20C36800026A00C41E9E0426FF5F20C36800036A00C41E9E0426FF5F20C36B
:20756000558BEC57C47E04B9FFFF33C0F2AEF7D1498BC15FC9C20400558BEC5756C47E044E
:207580001EC57608B9FFFF33C0F2AEF7D12BF9F3A674051BC01DFFFF1F5E5FC9C2080000DD
:2075A000558BEC5756C47E041EC57608B9FFFF33C0F2AEF7D12BF987FE1E061F07D1E9F3F9
:2075C000A513C9F3A41F5E5FC9C20800558BEC57568B46068B56088B4E048BF88EC21EC558
:2075E000760A33C0F3A674051BC01DFFFF1F5E5FC9C20A00558BEC57568B46068B56088BDB
:207600004E041E8BF08EDAC47E0AD1E9F3A513C9F3A41F5E5FC9C20A00CCCF0000000000FA
:2076200000006207000025610A002E00000025630000656D38366D6F6E3A2000005A6202F9
:207640000101004B0000010100000000000001000000010100FA00000001000000000101DB
:2076600001000000010100000E000201000000000001030000000001FFFFFFFF00002221B2
:20768000010000008CC8EA5C28000000601E060E1F9AFE260000071F61CF00000000000062
:2076A000000000000000601E060E1F9AC42A0000071F61CF601E060E1F9A1E2A0000071F82
:2076C00061CF0000601E060E1F9A91030000071F61CF601E060E1F9A4A300000071F61CF2A
:2076E000000000000A202020202020202020202020202020000000005074723A20256C7807
:207700002C20446174613A2025782C206D656D3A2025780A0000202025346420202025613D
:207720002020202025730A00000000FF00FF000000F0EE6C000000000000000000001201CC
:207740006207185C000000000000000000000000000000004E04520474040000000000002C
:1077600042424242424242424242424242424242F9
:207770002B0000000200620769000000740000009C0000008E000000BA000000AC000000F6
:20779000240100002001620714010000FFFFFFFFFFFFFFFFFFFFFFFFFFFFFFFFFFFFFFFF29
:02000002FFFFFE
:05000000EA000000F819
:00000001FF
