:040000030000019A5E
:1C0000020000414D44204C504420016200DF080000000DE000000E0000000E009D
:2000000000000000000000000000000000000000558BECB80200E83F045657B84A008CDA1A
:200020005250B842008CDA5250E892093D64007403E9080083FA007503E91300B880008CDB
:20004000DA5250E8680983C404B80000E99000B896008CDA5250B892008CDA5250E85E0958
:20006000A33403891636033D00007403E90E0083FA007403E90600B80000E96200B8D000B5
:200080008CDA5250B8CC008CDA5250E83009A3380389163A033D00007403E90E0083FA00C9
:2000A0007403E90600B80000E93400B80D018CDA5250B806018CDA5250E80209A33003891E
:2000C0001632033D00007403E90E0083FA007403E90600B80000E90600B80100E900005F9F
:2000E0005E8BE55DC390558BECB80200E869035657E81CFF3D00007403E93B00B843018C98
:20010000DA5250E8A80883C404FF363203FF363003FF363A03FF363803FF363603FF3634F5
:2001200003B869018CDA5250E8830883C410E86109B80100E95B00B8010050B8040050FF65
:200140001E340350B8040050B8010050B87B018CDA5250E8580883C40AB8010050B804004B
:2001600050FF1E380350B8040050B8010050B88A018CDA5250E8360883C40AB899018CDAF8
:200180005250FF1E300383C404E80609B80000E900005F5E8BE55DC30A00B430CD213C0223
:2001A000730533C00650CBBFAB008B3602002BF781FE00107203BE0010FA8ED781C43E03AD
:2001C000FB7310161FE86A0233C050E8F704B8FF4CCD2136A3F20186E036A3F0018BC6B103
:2001E00004D3E04836A3B001BBB201368C1783E4FE36896704B8FEFF503689670AF7D05054
:200200003689670636896708368926AC0103F7893602008CC32BDEF7DBB44ACD21368C1E41
:20022000EE011607FCBF2C03B940032BCF33C0F3AA161F8B0E2E02E302FFD1E8DE03E8518D
:200240000233EDE85000161FFF361202FF361002FF360E02E88FFE50E80D01C32EA1940257
:200260008ED8B80300C706AE016803502E8B1E94028EDB9A1E070000E8B701E84704813EFF
:200280003002D6D675065850FF163402B8FF0050FF16AE01AB00B80035CD21891EDA018CB3
:2002A00006DC010E1FB80025BA5C02CD21161F833E3E020074318C0E40028C0E48028E061C
:2002C000EE01268B362C00A142028B16440233DBFF1E3E027303E97901A146028B16480238
:2002E000BB0300FF1E3E028E06EE01268B0E2C00E33E8EC133FF26803D007434B90D00BEC4
:20030000CC01F3A6740BB9FF7F33C0F2AE7521EBE5061E071F8BF7BFFA01B104AC2C417202
:200320000DD2E092AC2C4172050AC2AAEBEE161FBB040080A7FA01BFB80044CD21720AF65C
:20034000C2807405808FFA01404B79E7BE4A02BF4A02E8C900BE4A02BF4A02E8B100BE4A71
:2003600002BF4A02E8B700C3558BEC33C9EB1A558BECB90100EB12558BEC5657B90001EBA0
:2003800008558BEC5657B90101882E2102510AC97527BE2C03BF2C03E87400BE2C03BF2C79
:2003A00003E87A00BE4A02BF4A02E86200813E3002D6D67504FF163602BE4A02BF4A02E819
:2003C0004D00BE4A02BF4A02E85300E8A2000BC07411580AE450750B837E04007505C74604
:2003E00004FF00E81000580AE475078B4604B44CCD215F5E5DC38B0E4002E307BB0200FF1F
:200400001E3E021EC516DA01B80025CD211FC33BF7730A4F4F8B0DE3F6FFD1EBF2C33BF79D
:20042000730E83EF048B050B450274F2FF1DEBEEC300558BECB8FC0050E88902833E22029D
:20044000007404FF162202B8FF0050E877028BE55DC3B80200E913FE598BDC2BD8720A3BC5
:200460001E260272048BE3FFE15133C0E9FCFD005633F6B9420032E4FCAC32E0E2FB80F4B1
:2004800055740DE8ACFFB8010050E83802B801005EC38F062802A1F201BA01003C02742905
:2004A0008E06EE01268E062C008C06160233C099B9008033FFF2AEAE75FB4747893E140209
:2004C000B9FFFFF2AEF7D18BD1BF0100BE81008E1EEE01AC3C2074FB3C0974F73C0D746FB4
:2004E0000AC0746B474EAC3C2074E83C0974E43C0D745C0AC074583C2274243C5C740342C7
:20050000EBE433C941AC3C5C74FA3C22740403D1EBD38BC1D1E913D1A80175CAEB014EACFD
:200520003C0D742B0AC074273C2274BA3C5C740342EBEC33C941AC3C5C74FA3C22740403F2
:20054000D1EBDB8BC1D1E913D1A80175D2EB97161F893E0E0203D747D1E703D74280E2FE47
:200560002BE28BC4A310028BD803FB160736893F4343C5361402ACAA0AC075FA368E1EEEF8
:2005800001BE8100EB0333C0AAAC3C2074FB3C0974F73C0D747C0AC0747836893F43434EA8
:2005A000AC3C2074E13C0974DD3C0D74620AC0745E3C2274273C5C7403AAEBE433C941AC23
:2005C0003C5C74FA3C227406B05CF3AAEBD1B05CD1E9F3AA7306B022AAEBC54EAC3C0D7419
:2005E0002E0AC0742A3C2274B73C5C7403AAEBEC33C941AC3C5C74FA3C227406B05CF3AADC
:20060000EBD9B05CD1E9F3AA7396B022AAEBCD33C0AA161FC7070000FF262802558BEC1E9D
:200620008E06EE01268B1E2C008EC333C033F633FFB9FFFF0BDB740E26803E000000740620
:20064000F2AE46AE75FA8BC74024FE468BFED1E6B90900E8A400508BC6E89E00A31202062B
:200660001E071F8BCF8BD833F65F49E3268B04363B06CC017510515657BFCC01B90600F30B
:20068000A75F5E59740526893F4343ACAA0AC075FAE2DA26890F1F5DC300558BEC56571ED1
:2006A000078B5604BE5202AD3BC274104096740C9733C0B9FFFFF2AE8BF7EBEB965F5E8BA1
:2006C000E55DC20200558BEC57FF7604E8CBFF0BC07420928BFA33C0B9FFFFF2AEF7D149F5
:2006E000BB0200813E3002D6D67504FF163202B440CD215F8BE55DC20200530651B90004A5
:20070000870E2A025150E836015B8F062A02598CDA0BC07403075BC38BC1E94EFB00CB00CD
:200720005157F64702017463E8D2008BFE8B04A80174032BC84941418B77040BF6744C0380
:20074000CE730933C0BAF0FFE330EB3F160726A12A023D00207416BA00803BD07206D1EA07
:2007600075F8EB2283FA08721DD1E28BC2488BD003C1730233C0F7D223C252E82E005A7339
:200780000D83FAF07405B81000EBE2F9EB1B8BD02B5704894704897F088B770A4A891442D8
:2007A00003F2C704FEFF89770A5F59C38BD0F6470204740F4A8B77044E3BD676053957FE1E
:2007C00073364253518CDE8EC6B104D3E87503B80010F6470204740A03C68B1EEE012BC30C
:2007E0008EC38BD8B44ACD21595B72108BC2F647020474044A8957FEF8EB01F9C3578B77FA
:20080000083B770A75038B7706AD83F8FE74088BFE24FE03F0EBF24F4F8BF75FC300558B55
:20082000EC568B5E04BEB201395C06730D4B4B800F01395C087603895C085E8BE55DC35591
:200840008BEC56578B4E0483F9E87712BBB201E828007321E8C9FE7205E81E00731733C0EF
:2008600039062C02740EFF7604FF162C0283C4020BC075D0995F5E5DC3004180E1FE53FC0F
:200880008B77088B5F0A33FFEB238BC35BA8017542538B77068B5F083BDE74364B33FFEB99
:2008A0000C908D54FE3BD373E103F07223ADA80174F08BFE483BC1732303F072138BD0AD36
:2008C000A80174DE03C283C0028BF78944FEEBE48BC05B8B4706894708F9EB195B894CFE76
:2008E000740903F92BC14889052BF903F9897F088BC68CDAF8C3C8100000C41E3C03268B71
:200900004714268B57168946FC8956FEC746FAFFFF8BC20B46FC7448C45EFC268B4704261B
:200920008B57068946F68956F8C45EF6268B07268B57028946F28956F40BD0742EC45EFC2A
:20094000268B47148946F01E8E5EF08D46041650FF5EF283C4048946FA1F837EFAFF7405A0
:200960008B46FAC9C38346F604EBBEC45EFC268B07268B57028946FC8956FEEB9400558BCD
:20098000ECCD20454D4F4E44415441A33C0389163E03C41E3C0326833F4E750D26817F0272
:2009A00042037505B80100C9C333C0C9C300558BEC8D460416506A32E83BFFC9C300C80495
:2009C0000000E8B9FF8D46FC1650FF7606FF7604FF760AFF76086A19E81BFF83C40E4074C4
:2009E000088B46FC8B56FEEB0333C099C9C20800558BECFF76046A3EE8FBFEC9C2020000DB
:200A0000558BECFF7606FF7604FF76086A45E8E5FEC9C2060000558BECFF7606FF7604FFCF
:200A2000760AFF7608FF760C6A46E8C9FEC9C20A0000558BECFF7604FF7608FF76066A4756
:200A4000E8B3FEC9C2060000C802000056C41E3C03268B770626037726268A048846FE8334
:200A60007E0400740750E80B008846FE8A46FE5EC9C20200558BEC8066047F807E044172C7
:200A80000A807E045A7704804604208A4604C9C202006800026A00C41E3C0326FF5F20C3CE
:200AA000AB00000000000000000000000000000000000000000000004D532052756E2D5415
:200AC000696D65204C696272617279202D20436F70797269676874202863292031393932F7
:200AE0002C204D6963726F736F667420436F72701A0076657273696F6E00536F6D6520521A
:200B000065616C6C7920756E69717565206D6F64756C65206E616D65206E6F626F647920D5
:200B2000656C73652074686F75676874206F66004D6F64756C65206E6F7420666F756E64E1
:200B40000A0041646400536F6D65205265616C6C7920756E69717565206D6F64756C6520E8
:200B60006E616D65206E6F626F647920656C73652074686F75676874206F6600537562001E
:200B8000536F6D65205265616C6C7920756E69717565206D6F64756C65206E616D65206E8C
:200BA0006F626F647920656C73652074686F75676874206F6600426974654D6500536F6DD2
:200BC00065205265616C6C7920756E69717565206D6F64756C65206E616D65206E6F626F3B
:200BE000647920656C73652074686F75676874206F66000A536F727279202D2D20636F752D
:200C00006C646E27742066696E64206F74686572206D6F64756C650A0056616C7565733A9E
:200C20002025612025612025610A000A2564202B202564203D2025640A000A2564202D2021
:200C40002564203D2025640A004C696E6B656420746F2046696E64656521000000006F03A3
:200C6000000000000500000000000000000000000000000000000000000000005F435F4628
:200C8000494C455F494E464F3D0000000000000000000000000000000000000000000000B2
:200CA00000000000000000001400818181010100000000000000000000000000000000009B
:200CC000000000001802AB00000000000000000000000000FFFF40040000002000000000ED
:200CE00000005B025B025B020000000000000000000000000000000000003C3C4E4D534730
:200D00003E3E000052363030300D0A2D20737461636B206F766572666C6F770D0A00030017
:200D200052363030330D0A2D20696E74656765722064697669646520627920300D0A000946
:200D40000052363030390D0A2D206E6F7420656E6F75676820737061636520666F722065FF
:200D60006E7669726F6E6D656E740D0A00FC000D0A00FF0072756E2D74696D652065727260
:200D80006F722000020052363030320D0A2D20666C6F6174696E672D706F696E742073751F
:200DA00070706F7274206E6F74206C6F616465640D0A00010052363030310D0A2D206E758C
:1B0DC0006C6C20706F696E7465722061737369676E6D656E740D0A00FFFFFFB2
:200DE000A80100007602000094020000A00A0000C60C0000E00D0000E00D0000E00D0000F9
:00000001FF
